<svg width="45" height="34" viewBox="0 0 45 34" fill="none" xmlns="http://www.w3.org/2000/svg">
<path d="M15 0H30V33.2524H15V0Z" fill="white"/>
<path d="M0 -0.00012207H15.0001V33.2524H0V-0.00012207Z" fill="#DA251D"/>
<path d="M30 0H44.9999V33.2524H30V0Z" fill="#0077B9"/>
<path d="M22.4423 8.22754L22.9958 9.36807L24.1455 9.59917L23.3378 10.5352L23.4953 11.8187L22.4423 11.2568L21.3893 11.8187L21.546 10.5352L20.7383 9.59917L21.8888 9.36807L22.4423 8.22754Z" fill="white"/>
<path d="M22.9882 9.41585L22.9567 9.39091L22.4032 8.2494L22.4782 8.20367L23.0324 9.34435L22.9882 9.41585ZM22.9882 9.41585L22.9672 9.41169L22.9567 9.39091L22.9882 9.41585ZM24.1776 9.63201L24.1379 9.64698L22.9882 9.41585L23.0032 9.32024L24.1536 9.55054L24.1776 9.63201ZM24.1536 9.54887L24.2339 9.5655L24.1776 9.63035L24.1536 9.54887ZM23.2942 10.5416L23.3062 10.5017L24.1139 9.5655L24.1776 9.63201L23.3699 10.5682L23.2942 10.5416ZM23.2942 10.5416V10.5183L23.3092 10.5017L23.2942 10.5416ZM23.4749 11.8627L23.4509 11.8252L23.2934 10.5416L23.3804 10.5283L23.5379 11.8128L23.4749 11.8627ZM23.5379 11.8128L23.5484 11.9017L23.4734 11.8627L23.5379 11.8128ZM22.4249 11.2125H22.4632L23.5132 11.7754L23.4749 11.8627L22.4249 11.3006V11.2125ZM22.4249 11.2125L22.4444 11.2025L22.4632 11.2125H22.4249ZM21.3479 11.8128L21.3719 11.7754L22.4219 11.2125L22.4602 11.3006L21.4102 11.8627L21.3479 11.8128ZM21.4102 11.8627L21.3352 11.9017L21.3464 11.8128L21.4102 11.8627ZM21.5804 10.5017L21.5917 10.5416L21.4349 11.8252L21.3479 11.8128L21.5047 10.5283L21.5804 10.5017ZM21.5804 10.5017L21.5947 10.5183V10.5416L21.5804 10.5017ZM20.733 9.55054L20.7727 9.5655L21.5804 10.5017L21.5167 10.5682L20.709 9.63201L20.733 9.55054ZM20.709 9.63368L20.6527 9.56883L20.733 9.5522L20.709 9.63368ZM21.9292 9.39257L21.8984 9.41751L20.7465 9.64365L20.7307 9.54721L21.8804 9.31691L21.9292 9.39257ZM21.9292 9.39257L21.9194 9.41336L21.8984 9.41751L21.9292 9.39257ZM22.4827 8.20533V8.25106L21.9269 9.39423L21.8519 9.34768L22.4054 8.207L22.4827 8.20533ZM22.4077 8.20533L22.4467 8.12219L22.4849 8.20533H22.4077Z" fill="#1F1A17"/>
<path d="M26.0483 14.8594V17.9917H26.025L26.0378 17.7814C25.9905 17.6434 25.8615 17.4962 25.8053 17.3657C25.749 17.2352 25.4363 17.123 25.3125 17.0532C25.1351 17.1281 24.9713 17.2376 24.8287 17.3765C24.6255 17.5652 24.4005 17.8171 24.2445 17.9909H24.2535C24.4642 17.7905 24.765 17.5054 24.7252 17.414C24.669 17.2834 24.291 16.5486 24.168 16.4779C23.8605 16.5436 23.8035 16.9135 23.568 17.3425C23.334 17.5561 23.2477 17.7099 23.0092 17.9144C23.2046 17.7452 23.3872 17.5587 23.5552 17.3566C23.4802 17.1296 23.2245 16.931 23.037 16.8836C22.8622 16.8836 22.7092 17.2635 22.6529 17.3632C22.5967 17.463 22.4947 17.6741 22.4482 17.7789C22.4009 17.6409 22.4257 17.4938 22.3694 17.3632C22.3189 17.2302 22.2293 17.1201 22.1152 17.0507C21.8069 17.1155 21.5557 17.2942 21.3224 17.5079C21.1369 17.6555 20.9601 17.816 20.7929 17.9884H20.4179C20.3571 17.9385 20.2956 17.8903 20.2334 17.8429C19.9494 17.6117 19.6216 17.4553 19.2749 17.3857C19.143 17.4479 19.0342 17.5582 18.9666 17.6983C18.9286 17.7898 18.905 17.888 18.8969 17.9884V14.8602C19.3469 14.6216 19.6469 14.1536 20.0969 14.1894C20.5596 14.1204 20.6459 14.7812 21.2114 14.8478C21.8114 14.8478 21.8932 14.0821 22.5367 14.2018C23.1367 14.2018 23.1967 14.7763 23.7967 14.7763C24.237 14.743 24.3795 14.1669 24.8902 14.1944C25.2435 14.1752 25.593 14.6358 26.0483 14.8594Z" fill="white"/>
<path d="M18.8729 12.0017H26.0339V14.8715C25.5659 14.6528 25.2502 14.174 24.8917 14.1981C24.3809 14.1665 24.2384 14.7426 23.7982 14.78C23.1982 14.78 23.1382 14.2056 22.5382 14.2056C21.8947 14.0858 21.8129 14.8515 21.2129 14.8515C20.6474 14.785 20.5612 14.1241 20.0984 14.1931C19.6357 14.1565 19.3342 14.6412 18.8729 14.8756V12.0017Z" fill="#0067AB"/>
<path d="M18.8729 12.0017H26.0339V14.8715C25.5659 14.6528 25.2502 14.174 24.8917 14.1981C24.3809 14.1665 24.2384 14.7426 23.7982 14.78C23.1982 14.78 23.1382 14.2056 22.5382 14.2056C21.8947 14.0858 21.8129 14.8515 21.2129 14.8515C20.6474 14.785 20.5612 14.1241 20.0984 14.1931C19.6357 14.1565 19.3342 14.6412 18.8729 14.8756V12.0017Z" stroke="#0A0B0C" stroke-width="0.09" stroke-miterlimit="10"/>
<path d="M21.2415 12.5848C21.3743 12.454 21.5379 12.3676 21.7132 12.3354L22.1865 12.0977L22.2292 12.2889H22.2405C22.329 12.2889 22.416 12.293 22.4977 12.2997L22.899 12.0977L22.9425 12.2889L22.6477 12.3163C22.9268 12.3545 23.1398 12.4319 23.2155 12.525L23.6768 12.2406L23.7413 12.9115L23.2245 12.6621C23.1578 12.7611 22.9388 12.8425 22.6477 12.8833L22.9425 12.9107L22.899 13.1019L22.5 12.8982C22.4182 12.9049 22.3312 12.9091 22.2427 12.9091H22.2315L22.1887 13.1003L21.7155 12.8617C21.4297 12.8068 21.285 12.7403 21.2415 12.6522C21.2877 12.6492 21.3336 12.6417 21.3787 12.6297C21.3363 12.6043 21.2895 12.589 21.2415 12.5848Z" fill="white"/>
<path d="M21.2415 12.5848C21.3743 12.454 21.5379 12.3676 21.7132 12.3354L22.1865 12.0977L22.2292 12.2889H22.2405C22.329 12.2889 22.416 12.293 22.4977 12.2997L22.899 12.0977L22.9425 12.2889L22.6477 12.3163C22.9268 12.3545 23.1398 12.4319 23.2155 12.525L23.6768 12.2406L23.7413 12.9115L23.2245 12.6621C23.1578 12.7611 22.9388 12.8425 22.6477 12.8833L22.9425 12.9107L22.899 13.1019L22.5 12.8982C22.4182 12.9049 22.3312 12.9091 22.2427 12.9091H22.2315L22.1887 13.1003L21.7155 12.8617C21.4297 12.8068 21.285 12.7403 21.2415 12.6522C21.2877 12.6492 21.3336 12.6417 21.3787 12.6297C21.3363 12.6043 21.2895 12.589 21.2415 12.5848V12.5848Z" stroke="#1F1A17" stroke-width="0.09" stroke-miterlimit="10"/>
<path d="M21.5783 12.4694V12.4247H21.6H21.6038H21.6075H21.6113H21.615H21.6188H21.6226V12.4288V12.433V12.4371V12.4421V12.447V12.452V12.4578V12.4851H21.5933V12.4652H21.6H21.5843L21.5783 12.4694ZM21.5197 12.5273H21.4905V12.5V12.4942V12.4892V12.4843V12.4793V12.4752V12.471V12.4669H21.4942H21.498H21.5017H21.5062H21.51H21.5137H21.5348V12.4694H21.519H21.5137V12.4917L21.5197 12.5273ZM21.5783 12.5852V12.6307H21.5573H21.5535H21.5498H21.5453H21.5415H21.5378H21.534V12.6266V12.6225V12.6183V12.6134V12.6084V12.6034V12.5985V12.5703H21.5633V12.5927H21.582L21.5783 12.5852ZM21.6368 12.5273H21.6661V12.5521V12.5571V12.5621V12.567V12.572V12.5761V12.5803V12.5844H21.6623H21.6586H21.6548H21.6511H21.6473H21.6436H21.6226V12.5389H21.6V12.519L21.6368 12.5273Z" fill="#1F1A17"/>
<path d="M21.8708 12.5886H21.9001V12.6169V12.6261V12.6344V12.6435V12.6518V12.6602V12.6685V12.6768V12.6843L21.8963 12.6918V12.6984L21.8918 12.7059L21.8881 12.7126L21.8836 12.7184L21.8791 12.7242L21.8746 12.73L21.8701 12.7359L21.8648 12.7409L21.8596 12.7458L21.8543 12.75H21.849H21.843H21.837H21.8318H21.8258H21.819H21.813H21.807H21.7935V12.7051H21.8093H21.8138H21.819H21.8235H21.828H21.8325H21.837H21.8415H21.8453H21.8498V12.7009L21.8535 12.6968L21.8573 12.6918V12.6876V12.6826V12.6768V12.6718V12.666V12.6602V12.6543V12.6485V12.6419V12.636V12.6294V12.6227V12.6161V12.5953L21.8708 12.5886ZM21.7717 12.4514V12.4056H21.7912H21.7972H21.804H21.81H21.8153H21.8213H21.8273L21.8325 12.4098L21.8378 12.414H21.843L21.8483 12.4189L21.8528 12.4248L21.8573 12.4306L21.8618 12.4364L21.8663 12.4431L21.8701 12.4497L21.8746 12.4564V12.463L21.8783 12.4705V12.4788V12.4863V12.4946V12.503V12.5113V12.5204V12.5287V12.5379V12.5662H21.849V12.5454V12.5387V12.5529V12.547V12.5404V12.5346V12.5279V12.5221V12.5163V12.5113V12.5055V12.5005V12.4955V12.4905L21.8453 12.4855V12.4813H21.8415V12.4772H21.837H21.8333H21.8288H21.8243H21.8198H21.8153H21.8108H21.8055H21.801H21.7852L21.7717 12.4514Z" fill="#1F1A17"/>
<path d="M21.93 12.5884H21.9593V12.62V12.6299V12.6399V12.6499V12.6598V12.669V12.6781V12.6872V12.6956V12.7039L21.9555 12.7122L21.9518 12.7205V12.7279L21.9473 12.7354L21.9428 12.7421L21.9383 12.7487L21.9337 12.7545L21.9285 12.7603L21.9232 12.7662L21.918 12.7711L21.9127 12.7753L21.9067 12.7803H21.9007H21.8947H21.8887H21.8827H21.8759H21.8564V12.7346H21.8714H21.8759H21.8812H21.8857H21.8902H21.8947H21.8992H21.9029H21.9074L21.9112 12.7304L21.915 12.7263L21.9187 12.7213V12.7163L21.9225 12.7105V12.7055V12.6997V12.6931V12.6864V12.6798V12.6731V12.6665V12.659V12.6515V12.6441V12.6366V12.5951L21.93 12.5884ZM21.8308 12.4223V12.3774H21.8443H21.8503H21.8571H21.8631H21.8691H21.8751H21.8812L21.8872 12.3816H21.8924L21.8977 12.3866L21.9029 12.3924L21.9082 12.3982L21.9127 12.4049L21.9172 12.4107L21.9217 12.4181L21.9262 12.4256V12.4331L21.93 12.4406L21.9337 12.4489V12.4572V12.4655V12.4746V12.4838V12.4937V12.5029V12.5128V12.5228V12.5328V12.5643H21.9044V12.5236V12.5153V12.5078V12.5004V12.4937V12.4862V12.4796V12.473V12.4663V12.4605V12.4547V12.4489L21.8999 12.4696V12.4647L21.8962 12.4597H21.8924L21.8887 12.4555L21.8842 12.4514H21.8804H21.8759H21.8714H21.8669H21.8624H21.8571H21.8526H21.8376L21.8308 12.4223Z" fill="#1F1A17"/>
<path d="M21.6047 12.5248C21.6047 12.5173 21.602 12.5102 21.5973 12.5049C21.5925 12.4996 21.586 12.4966 21.5792 12.4966C21.5725 12.4966 21.566 12.4996 21.5612 12.5049C21.5564 12.5102 21.5537 12.5173 21.5537 12.5248C21.5537 12.5323 21.5564 12.5395 21.5612 12.5448C21.566 12.5501 21.5725 12.5531 21.5792 12.5531C21.586 12.5531 21.5925 12.5501 21.5973 12.5448C21.602 12.5395 21.6047 12.5323 21.6047 12.5248Z" fill="#0A0B0C"/>
<path d="M21.5782 12.5114V12.4822H21.6V12.5047H21.5655L21.5782 12.5114ZM21.5625 12.5247H21.543V12.5005H21.561V12.5297H21.5452L21.5625 12.5247ZM21.5782 12.5381V12.5673H21.5587V12.5431H21.594L21.5782 12.5381ZM21.594 12.5247H21.6127V12.5472H21.5932V12.518H21.609L21.594 12.5247Z" fill="#1F1A17"/>
<path d="M23.2612 12.549L23.6842 12.3641" stroke="#1F1A17" stroke-width="0.09" stroke-miterlimit="10"/>
<path d="M23.2657 12.5734L23.7029 12.4983" stroke="#1F1A17" stroke-width="0.09" stroke-miterlimit="10"/>
<path d="M23.2649 12.5933L23.7189 12.6537" stroke="#1F1A17" stroke-width="0.09" stroke-miterlimit="10"/>
<path d="M23.2612 12.616L23.7285 12.7924" stroke="#1F1A17" stroke-width="0.09" stroke-miterlimit="10"/>
<path d="M22.5974 12.2849L22.9133 12.1329" stroke="#1F1A17" stroke-width="0.09" stroke-miterlimit="10"/>
<path d="M22.7024 12.2849L22.9019 12.2186" stroke="#1F1A17" stroke-width="0.09" stroke-miterlimit="10"/>
<path d="M22.7024 12.9128L22.9244 12.9681" stroke="#1F1A17" stroke-width="0.09" stroke-miterlimit="10"/>
<path d="M22.6252 12.9193L22.8967 13.0542" stroke="#1F1A17" stroke-width="0.09" stroke-miterlimit="10"/>
<path d="M22.1094 12.894L22.2089 12.9371" stroke="#1F1A17" stroke-width="0.09" stroke-miterlimit="10"/>
<path d="M21.9983 12.8887L22.1978 13.0059" stroke="#1F1A17" stroke-width="0.09" stroke-miterlimit="10"/>
<path d="M21.9158 12.9069L22.1813 13.0592" stroke="#1F1A17" stroke-width="0.09" stroke-miterlimit="10"/>
<path d="M21.8767 12.304L22.1812 12.1447" stroke="#1F1A17" stroke-width="0.09" stroke-miterlimit="10"/>
<path d="M21.9983 12.2936L22.2037 12.1821" stroke="#1F1A17" stroke-width="0.09" stroke-miterlimit="10"/>
<path d="M22.1371 12.2797L22.2091 12.2494" stroke="#1F1A17" stroke-width="0.09" stroke-miterlimit="10"/>
<path d="M19.2981 13.5508C19.4308 13.4197 19.5945 13.3332 19.7699 13.3014L20.2431 13.0629L20.2859 13.2549H20.2971C20.3856 13.2549 20.4726 13.2549 20.5544 13.2649L20.9556 13.0629L20.9991 13.2549L20.7044 13.2815C20.9834 13.3206 21.1964 13.397 21.2714 13.491L21.7334 13.2067L21.7979 13.8767L21.2804 13.6273C21.2144 13.7262 20.9954 13.8085 20.7044 13.8484L20.9991 13.8758L20.9556 14.0679L20.5544 13.8659C20.4726 13.8725 20.3856 13.8758 20.2971 13.8758H20.2859L20.2431 14.0679L19.7699 13.8293C19.4841 13.7744 19.3386 13.7079 19.2959 13.6198C19.3422 13.6169 19.3881 13.6094 19.4331 13.5974C19.3917 13.5712 19.3457 13.5553 19.2981 13.5508Z" fill="white"/>
<path d="M19.2981 13.5508C19.4308 13.4197 19.5945 13.3332 19.7699 13.3014L20.2431 13.0629L20.2859 13.2549H20.2971C20.3856 13.2549 20.4726 13.2549 20.5544 13.2649L20.9556 13.0629L20.9991 13.2549L20.7044 13.2815C20.9834 13.3206 21.1964 13.397 21.2714 13.491L21.7334 13.2067L21.7979 13.8767L21.2804 13.6273C21.2144 13.7262 20.9954 13.8085 20.7044 13.8484L20.9991 13.8758L20.9556 14.0679L20.5544 13.8659C20.4726 13.8725 20.3856 13.8758 20.2971 13.8758H20.2859L20.2431 14.0679L19.7699 13.8293C19.4841 13.7744 19.3386 13.7079 19.2959 13.6198C19.3422 13.6169 19.3881 13.6094 19.4331 13.5974C19.3917 13.5712 19.3457 13.5553 19.2981 13.5508V13.5508Z" stroke="#0A0B0C" stroke-width="0.09" stroke-miterlimit="10"/>
<path d="M19.635 13.4289V13.3842H19.6583H19.6628H19.6673H19.6718H19.6755H19.6793H19.683H19.6868H19.6905V13.3883V13.3933V13.3974V13.4024V13.4074V13.4123V13.4173V13.438H19.65V13.467V13.4612H19.6298L19.635 13.4289ZM19.5825 13.4869H19.5413V13.4612V13.4562V13.4513V13.4463V13.4421V13.4372V13.433H19.545H19.5488H19.5533H19.557H19.5608H19.5653H19.5698H19.5743H19.5975V13.4786H19.5773V13.501L19.5825 13.4869ZM19.635 13.5449V13.5896H19.6163H19.6118H19.6073H19.6028H19.5983H19.5945H19.5908H19.5863H19.5825H19.5788V13.5855V13.5813V13.5772V13.573V13.5681V13.5639V13.5589V13.554V13.5283H19.62V13.5507H19.6253H19.6433L19.635 13.5449ZM19.6875 13.4869H19.725V13.5076V13.5126V13.5175V13.5225V13.5266V13.5316V13.5358V13.5399V13.544V13.5482H19.7213H19.7175H19.7138H19.71H19.7063H19.7018H19.6973H19.6928H19.6883H19.6695V13.5034H19.65H19.6545V13.4985V13.4786L19.6875 13.4869Z" fill="#0A0B0C"/>
<path d="M19.9215 13.5502H19.9627V13.5767V13.5858V13.5941V13.6024V13.6107V13.619V13.6273V13.6348V13.6423V13.6497L19.959 13.6572L19.9552 13.6638L19.9507 13.6705L19.947 13.6771L19.9417 13.6829L19.9372 13.6887L19.932 13.6945L19.9267 13.6995L19.9215 13.7045H19.9162L19.9102 13.7086L19.9042 13.7128H19.8982H19.8915H19.8855H19.8787H19.8712H19.8502V13.6688H19.8682H19.8727H19.8765H19.881H19.8855H19.8892H19.893H19.8967H19.9005V13.6647V13.6605H19.9042V13.6555V13.6506V13.6456V13.6398V13.634V13.6282V13.6223V13.6157V13.6099V13.6033V13.5966V13.5892V13.5502H19.9215ZM19.8285 13.4125V13.3677H19.8495H19.857H19.8637H19.8697H19.8765H19.8825H19.8885L19.8945 13.3718L19.8997 13.3768L19.905 13.3818L19.9102 13.3868L19.9155 13.3926L19.92 13.3984L19.9252 13.4042L19.929 13.4108L19.9335 13.4174L19.9372 13.4241L19.941 13.4316V13.439V13.4465V13.4539V13.4622V13.4697V13.478V13.4863V13.4954V13.5037V13.5502H19.8997V13.5211V13.5145V13.5079V13.5012V13.4946V13.4888V13.4822V13.4763V13.4714V13.4656V13.4606V13.4556V13.4506L19.896 13.4465V13.4423H19.8922H19.8885H19.8847H19.881H19.8765H19.872H19.8682H19.8637H19.8457L19.8285 13.4125Z" fill="#0A0B0C"/>
<path d="M19.9807 13.5504H20.025V13.5811V13.5911V13.6002V13.6102V13.6194V13.6285V13.6376V13.6468V13.6551L20.0212 13.6634V13.6717L20.0167 13.6792L20.013 13.6867L20.0085 13.6942V13.7008L20.0032 13.7075L19.9987 13.7141L19.9935 13.7199L19.9882 13.7258L19.9822 13.7307L19.9762 13.7357L19.9702 13.7407H19.9642H19.9575H19.9515H19.944H19.9372H19.9304H19.9154V13.7166H19.9327H19.9365H19.941H19.9447H19.9492H19.953H19.9567L19.9605 13.7125L19.9642 13.7075L19.968 13.7033L19.9717 13.6983V13.6925L19.9755 13.6875V13.6809V13.6751V13.6684V13.6618V13.6551V13.6476V13.6401V13.6327V13.6252V13.6169V13.5504H19.9807ZM19.8877 13.3841V13.3384H19.9027H19.9094H19.9162H19.9237H19.9297H19.9365L19.9425 13.3425L19.9485 13.3467L19.9545 13.3517L19.9605 13.3575L19.9657 13.3625L19.971 13.3691L19.9755 13.375L19.9807 13.3816V13.3891L19.9852 13.3957L19.989 13.4041L19.9935 13.4115V13.4198L19.9972 13.4282V13.4365V13.4456V13.4548V13.4639V13.473V13.4822V13.4922V13.5021V13.5504H19.956V13.508V13.4996V13.4922V13.4839V13.4764V13.4697V13.4622V13.4556V13.4498V13.4431V13.4373L19.9522 13.4315V13.4265L19.9485 13.4215L19.9447 13.4165L19.941 13.4124H19.9372H19.9335H19.9297H19.9252H19.9214H19.9169H19.9132H19.8959L19.8877 13.3841Z" fill="#0A0B0C"/>
<path d="M19.661 13.4867C19.661 13.483 19.6604 13.4794 19.6591 13.476C19.6578 13.4725 19.6559 13.4694 19.6536 13.4668C19.6512 13.4642 19.6484 13.4622 19.6453 13.4608C19.6422 13.4593 19.6389 13.4586 19.6356 13.4586C19.6322 13.4586 19.6289 13.4593 19.6258 13.4608C19.6227 13.4622 19.6199 13.4642 19.6176 13.4668C19.6152 13.4694 19.6133 13.4725 19.612 13.476C19.6108 13.4794 19.6101 13.483 19.6101 13.4867C19.6101 13.4941 19.6128 13.5013 19.6176 13.5065C19.6223 13.5118 19.6288 13.5148 19.6356 13.5148C19.6422 13.5146 19.6486 13.5115 19.6533 13.5063C19.6581 13.5011 19.6608 13.4941 19.661 13.4867Z" fill="#0A0B0C"/>
<path d="M19.6351 13.4817V13.4365H19.6569V13.4591H19.6111L19.6351 13.4817ZM19.6299 13.4876H19.5894V13.4675H19.6111V13.5127H19.6059L19.6299 13.4876ZM19.6351 13.4926V13.5387H19.6156V13.5144H19.6614L19.6351 13.4926ZM19.6396 13.4876H19.6809V13.5094H19.6614V13.4633H19.6659L19.6396 13.4876Z" fill="#0A0B0C"/>
<path d="M21.3179 13.5114L21.7408 13.3263" stroke="#0A0B0C" stroke-width="0.09" stroke-miterlimit="10"/>
<path d="M21.3225 13.5356L21.7598 13.4619" stroke="#0A0B0C" stroke-width="0.09" stroke-miterlimit="10"/>
<path d="M21.3218 13.5548L21.7753 13.6162" stroke="#0A0B0C" stroke-width="0.09" stroke-miterlimit="10"/>
<path d="M21.3179 13.5778L21.7852 13.7539" stroke="#0A0B0C" stroke-width="0.09" stroke-miterlimit="10"/>
<path d="M20.6542 13.2479L20.97 13.0953" stroke="#0A0B0C" stroke-width="0.09" stroke-miterlimit="10"/>
<path d="M20.759 13.2487L20.9586 13.1819" stroke="#0A0B0C" stroke-width="0.09" stroke-miterlimit="10"/>
<path d="M20.759 13.8755L20.9814 13.9299" stroke="#0A0B0C" stroke-width="0.09" stroke-miterlimit="10"/>
<path d="M20.682 13.8807L20.9535 14.0161" stroke="#0A0B0C" stroke-width="0.09" stroke-miterlimit="10"/>
<path d="M20.166 13.8572L20.2657 13.8989" stroke="#0A0B0C" stroke-width="0.09" stroke-miterlimit="10"/>
<path d="M20.0549 13.8506L20.2544 13.9681" stroke="#0A0B0C" stroke-width="0.09" stroke-miterlimit="10"/>
<path d="M19.9717 13.8698L20.238 14.0225" stroke="#0A0B0C" stroke-width="0.09" stroke-miterlimit="10"/>
<path d="M19.9336 13.2661L20.238 13.1072" stroke="#0A0B0C" stroke-width="0.09" stroke-miterlimit="10"/>
<path d="M20.0549 13.2551L20.2605 13.1432" stroke="#0A0B0C" stroke-width="0.09" stroke-miterlimit="10"/>
<path d="M20.1936 13.2415L20.2658 13.212" stroke="#0A0B0C" stroke-width="0.09" stroke-miterlimit="10"/>
<path d="M23.0999 13.5508C23.2325 13.4195 23.3962 13.333 23.5717 13.3014L24.0449 13.0629L24.0877 13.2549H24.0989C24.1874 13.2549 24.2744 13.2549 24.3562 13.2649L24.7574 13.0629L24.8002 13.2549L24.5062 13.2815C24.7852 13.3206 24.9982 13.397 25.0732 13.491L25.5344 13.2067L25.5997 13.8767L25.0822 13.6273C25.0162 13.7262 24.7972 13.8085 24.5062 13.8484L24.8002 13.8758L24.7574 14.0679L24.3562 13.8659C24.2744 13.8725 24.1874 13.8758 24.0989 13.8758H24.0877L24.0449 14.0679L23.5717 13.8293C23.2859 13.7744 23.1404 13.7079 23.0977 13.6198C23.1437 13.617 23.1894 13.6095 23.2342 13.5974C23.193 13.5713 23.1472 13.5554 23.0999 13.5508Z" fill="white"/>
<path d="M23.0999 13.5508C23.2325 13.4195 23.3962 13.333 23.5717 13.3014L24.0449 13.0629L24.0877 13.2549H24.0989C24.1874 13.2549 24.2744 13.2549 24.3562 13.2649L24.7574 13.0629L24.8002 13.2549L24.5062 13.2815C24.7852 13.3206 24.9982 13.397 25.0732 13.491L25.5344 13.2067L25.5997 13.8767L25.0822 13.6273C25.0162 13.7262 24.7972 13.8085 24.5062 13.8484L24.8002 13.8758L24.7574 14.0679L24.3562 13.8659C24.2744 13.8725 24.1874 13.8758 24.0989 13.8758H24.0877L24.0449 14.0679L23.5717 13.8293C23.2859 13.7744 23.1404 13.7079 23.0977 13.6198C23.1437 13.617 23.1894 13.6095 23.2342 13.5974C23.193 13.5713 23.1472 13.5554 23.0999 13.5508V13.5508Z" stroke="#1F1A17" stroke-width="0.09" stroke-miterlimit="10"/>
<path d="M23.4389 13.4289V13.3842H23.4636H23.4674H23.4711H23.4749H23.4786V13.3883V13.3924V13.3974V13.4016V13.4065V13.4115V13.4165V13.4223V13.4446H23.4486V13.467V13.462H23.4306L23.4389 13.4289ZM23.3803 13.4869H23.3511V13.467V13.4612V13.4562V13.4513V13.4463V13.4421V13.4372V13.433V13.4289H23.3548H23.3586H23.3623H23.3661H23.3698H23.3736H23.3991V13.4745H23.3803V13.4968V13.4869ZM23.4389 13.5449V13.5896H23.4179H23.4134H23.4096H23.4059H23.4021H23.3984H23.3946H23.3908V13.5855V13.5813V13.5772V13.5722V13.5672V13.5623V13.5573V13.5523V13.5474V13.525H23.4201V13.5474H23.4449L23.4389 13.5449ZM23.4967 13.4869H23.5267V13.5092V13.5142V13.5192V13.5242V13.5291V13.5341V13.5391V13.5432V13.5474V13.5515H23.5229H23.5192H23.5154H23.5117H23.5072H23.4869V13.5068H23.5109V13.5018V13.4844L23.4967 13.4869Z" fill="#1F1A17"/>
<path d="M23.7315 13.5505H23.7607V13.5788V13.5871V13.5962V13.6054V13.6137V13.622V13.6303V13.6378V13.6461L23.757 13.6536L23.7532 13.6602V13.6669L23.7495 13.6735L23.745 13.6802L23.7405 13.686L23.736 13.6918L23.7315 13.6976L23.7262 13.7026H23.7209L23.7157 13.7068L23.7097 13.7109H23.7044H23.6984H23.6924H23.6864H23.6804H23.6744H23.6549V13.6652H23.6699H23.6751H23.6796H23.6849H23.6894H23.6939H23.6984H23.7022H23.7067H23.7112V13.6611L23.7149 13.6569L23.7187 13.6519V13.6469V13.642V13.637V13.6311V13.6262V13.6203V13.6145V13.6079V13.6021V13.5954V13.5896V13.5505H23.7315ZM23.6323 13.4126V13.3677H23.6451H23.6518H23.6579H23.6639H23.6699H23.6759H23.6819H23.6871H23.6932L23.6984 13.3718L23.7037 13.3768L23.7089 13.3818L23.7134 13.3876L23.7179 13.3926L23.7224 13.3993L23.7269 13.4051L23.7307 13.4117V13.4192L23.7345 13.4259L23.7382 13.4333V13.4408V13.4491V13.4574V13.4658V13.4741V13.4832V13.4915V13.5007V13.5505H23.7089V13.5165V13.5098V13.504V13.4973V13.4915V13.4857V13.4799V13.4741V13.4691V13.4633V13.4583V13.4541L23.7052 13.4491H23.7014V13.445L23.6969 13.4408H23.6924H23.6886H23.6841H23.6796H23.6751H23.6699H23.6654H23.6601H23.6451L23.6323 13.4126Z" fill="#1F1A17"/>
<path d="M23.7907 13.5506H23.8199V13.5822V13.5922V13.6022V13.6121V13.6213V13.6313V13.6404V13.6487V13.6579V13.6662L23.8161 13.6745L23.8124 13.682V13.6895L23.8079 13.697L23.8034 13.7045L23.7989 13.7103L23.7937 13.717L23.7892 13.7228L23.784 13.7278L23.7787 13.7336H23.7727L23.7675 13.7378L23.7615 13.7419H23.7555H23.7495H23.7428H23.7368H23.7301H23.7173V13.717H23.7323H23.7368H23.742H23.7465H23.751H23.7555H23.76H23.7637L23.7682 13.7128L23.772 13.7087H23.7757L23.7795 13.7037V13.6987L23.7832 13.6929V13.687V13.6812V13.6754V13.6687V13.6621V13.6554V13.6479V13.6413V13.6338V13.6263V13.618V13.6105V13.5506H23.7907ZM23.6919 13.3841V13.3384H23.7114H23.7173H23.7241H23.7301H23.7361H23.742L23.7473 13.3425L23.7533 13.3475L23.7585 13.3525L23.7637 13.3583L23.7682 13.3642L23.7735 13.37L23.778 13.3767L23.7825 13.3833L23.787 13.3908V13.3983L23.7907 13.4066L23.7944 13.4149V13.4233V13.4316V13.4407V13.4499V13.459V13.469V13.479V13.489V13.499V13.5506H23.7652V13.5173V13.509V13.5015V13.494V13.4865V13.479V13.4723V13.4657V13.459V13.4524V13.4457V13.4399V13.4341L23.7615 13.4291V13.4241L23.7578 13.4191L23.754 13.4149H23.7503L23.7458 13.4108H23.742H23.7376H23.7331H23.7286H23.7241H23.7188H23.6994L23.6919 13.3841Z" fill="#1F1A17"/>
<path d="M23.4645 13.4871C23.4652 13.483 23.465 13.4788 23.464 13.4749C23.4631 13.4709 23.4613 13.4672 23.4589 13.464C23.4565 13.4609 23.4535 13.4584 23.4502 13.4566C23.4468 13.4549 23.4431 13.454 23.4394 13.454C23.4357 13.454 23.432 13.4549 23.4287 13.4566C23.4253 13.4584 23.4223 13.4609 23.4199 13.464C23.4175 13.4672 23.4158 13.4709 23.4148 13.4749C23.4139 13.4788 23.4137 13.483 23.4143 13.4871C23.4137 13.4911 23.4139 13.4953 23.4148 13.4993C23.4158 13.5032 23.4175 13.5069 23.4199 13.5101C23.4223 13.5132 23.4253 13.5158 23.4287 13.5175C23.432 13.5192 23.4357 13.5201 23.4394 13.5201C23.4431 13.5201 23.4468 13.5192 23.4502 13.5175C23.4535 13.5158 23.4565 13.5132 23.4589 13.5101C23.4613 13.5069 23.4631 13.5032 23.464 13.4993C23.465 13.4953 23.4652 13.4911 23.4645 13.4871Z" fill="#0A0B0C"/>
<path d="M23.439 13.474V13.444H23.4584V13.4648H23.424L23.439 13.474ZM23.4233 13.4874H23.4038V13.4615H23.424V13.4915H23.4083L23.4233 13.4874ZM23.439 13.5007V13.5299H23.4218V13.5057H23.457L23.439 13.5007ZM23.4547 13.4874H23.4749V13.5074H23.457V13.4782H23.4727L23.4547 13.4874Z" fill="#1F1A17"/>
<path d="M25.1219 13.5114L25.545 13.3263" stroke="#1F1A17" stroke-width="0.09" stroke-miterlimit="10"/>
<path d="M25.1257 13.5356L25.563 13.4619" stroke="#1F1A17" stroke-width="0.09" stroke-miterlimit="10"/>
<path d="M25.1257 13.5548L25.5788 13.6162" stroke="#1F1A17" stroke-width="0.09" stroke-miterlimit="10"/>
<path d="M25.1219 13.5778L25.5884 13.7539" stroke="#1F1A17" stroke-width="0.09" stroke-miterlimit="10"/>
<path d="M24.4575 13.2479L24.774 13.0953" stroke="#1F1A17" stroke-width="0.09" stroke-miterlimit="10"/>
<path d="M24.5632 13.2487L24.7627 13.1819" stroke="#1F1A17" stroke-width="0.09" stroke-miterlimit="10"/>
<path d="M24.5632 13.8755L24.7853 13.9299" stroke="#1F1A17" stroke-width="0.09" stroke-miterlimit="10"/>
<path d="M24.4852 13.8807L24.7574 14.0161" stroke="#1F1A17" stroke-width="0.09" stroke-miterlimit="10"/>
<path d="M23.97 13.8572L24.0698 13.8989" stroke="#1F1A17" stroke-width="0.09" stroke-miterlimit="10"/>
<path d="M23.859 13.8506L24.0585 13.9681" stroke="#1F1A17" stroke-width="0.09" stroke-miterlimit="10"/>
<path d="M23.7756 13.8698L24.0419 14.0225" stroke="#1F1A17" stroke-width="0.09" stroke-miterlimit="10"/>
<path d="M23.7375 13.2661L24.0421 13.1072" stroke="#1F1A17" stroke-width="0.09" stroke-miterlimit="10"/>
<path d="M23.859 13.2551L24.0645 13.1432" stroke="#1F1A17" stroke-width="0.09" stroke-miterlimit="10"/>
<path d="M23.9978 13.2415L24.0698 13.212" stroke="#1F1A17" stroke-width="0.09" stroke-miterlimit="10"/>
<path d="M22.9956 9.36829L21.3892 11.8185" stroke="#1F1A17" stroke-width="0.09" stroke-miterlimit="10"/>
<path d="M21.8879 9.36829L23.4952 11.8185" stroke="#1F1A17" stroke-width="0.09" stroke-miterlimit="10"/>
<path d="M23.3378 10.5356L20.7383 9.59912" stroke="#1F1A17" stroke-width="0.09" stroke-miterlimit="10"/>
<path d="M21.546 10.5356L24.1455 9.59912" stroke="#1F1A17" stroke-width="0.09" stroke-miterlimit="10"/>
<path d="M22.4421 11.2568V8.22754" stroke="#1F1A17" stroke-width="0.09" stroke-miterlimit="10"/>
<path d="M19.7467 15.7827V15.2674H19.9882V15.5284H20.4667V15.2633H20.8034V15.5375H21.2789V15.2625H21.5084V15.7744H21.2872V17.4856L21.2452 17.5687C21.0907 17.6976 20.8387 17.9012 20.7397 18.0632C20.7211 18.0931 20.7074 18.1262 20.6992 18.1613C20.6804 18.1505 20.7157 18.1854 20.7164 18.202C20.6512 18.1563 20.475 17.9893 20.406 17.9444C20.3542 17.9028 20.3025 17.8613 20.25 17.8222C20.1592 17.7541 20.067 17.6892 19.971 17.6302C19.971 17.6194 19.971 17.6128 19.971 17.6128V15.7952L19.746 15.7852L19.7467 15.7827Z" fill="#DA251D"/>
<path d="M19.7467 15.7827V15.2674H19.9882V15.5284H20.4667V15.2633H20.8034V15.5375H21.2789V15.2625H21.5084V15.7744H21.2872V17.4856L21.2452 17.5687C21.0907 17.6976 20.8387 17.9012 20.7397 18.0632C20.7211 18.0931 20.7074 18.1262 20.6992 18.1613C20.6804 18.1505 20.7157 18.1854 20.7164 18.202C20.6512 18.1563 20.475 17.9893 20.406 17.9444C20.3542 17.9028 20.3025 17.8613 20.25 17.8222C20.1592 17.7541 20.067 17.6892 19.971 17.6302C19.971 17.6194 19.971 17.6128 19.971 17.6128V15.7952L19.746 15.7852L19.7467 15.7827Z" stroke="#1F1A17" stroke-width="0.09" stroke-miterlimit="10"/>
<path d="M19.9739 15.7924H21.2871" stroke="#1F1A17" stroke-width="0.09" stroke-miterlimit="10"/>
<path d="M19.9739 16.3577H21.2871" stroke="#1F1A17" stroke-width="0.09" stroke-miterlimit="10"/>
<path d="M19.9739 16.9238H21.2871" stroke="#1F1A17" stroke-width="0.09" stroke-miterlimit="10"/>
<path d="M19.9739 17.4857H21.2871" stroke="#1F1A17" stroke-width="0.09" stroke-miterlimit="10"/>
<path d="M20.2866 15.8014V16.3495" stroke="#1F1A17" stroke-width="0.09" stroke-miterlimit="10"/>
<path d="M20.9835 15.8014V16.3495" stroke="#1F1A17" stroke-width="0.09" stroke-miterlimit="10"/>
<path d="M20.2866 16.9417V17.4896" stroke="#1F1A17" stroke-width="0.09" stroke-miterlimit="10"/>
<path d="M20.6407 16.3668L20.3347 16.7486L20.367 17.8706L20.6684 18.1018L20.9137 17.8423L20.9354 16.7702L20.6407 16.3668Z" fill="#0A0B0C"/>
<path d="M20.6407 16.3668L20.3347 16.7486L20.367 17.8706L20.6684 18.1018L20.9137 17.8423L20.9354 16.7702L20.6407 16.3668Z" stroke="#1F1A17" stroke-width="0.09" stroke-miterlimit="10"/>
<path d="M22.4575 18.5739C22.4575 19.6001 22.4575 20.6267 22.4575 21.6535C24.3212 21.8421 25.8893 20.2787 26.0288 18.4625H26.0123L26.0026 18.6288C24.6796 19.5082 24.6526 17.8167 23.461 18.9945C23.0867 19.2546 22.7538 18.7044 22.4575 18.5739Z" fill="#0067AB"/>
<path d="M22.4575 18.5739C22.4575 19.6001 22.4575 20.6267 22.4575 21.6535C24.3212 21.8421 25.8893 20.2787 26.0288 18.4625H26.0123L26.0026 18.6288C24.6796 19.5082 24.6526 17.8167 23.461 18.9945C23.0867 19.2546 22.7538 18.7044 22.4575 18.5739Z" stroke="#1F1A17" stroke-width="0.09" stroke-miterlimit="10"/>
<path d="M22.4579 18.9194C22.4579 19.0266 22.4504 19.1687 22.4504 19.2752C22.7092 19.2752 23.0782 19.6285 23.3684 19.6783C23.6009 19.6459 24.0922 19.1945 24.3172 19.2486C24.5519 19.2652 24.8182 19.6218 25.1384 19.6642C25.3904 19.6002 25.6184 19.4655 25.8389 19.3666C25.8494 19.2768 25.9064 19.1696 25.9139 19.0798C25.6964 19.0798 25.3694 19.3483 25.1752 19.3608C24.8752 19.3807 24.5977 18.9659 24.3014 18.9077C24.0112 18.921 23.7389 19.2843 23.3684 19.3466C23.0692 19.33 22.7549 18.9376 22.4579 18.9194Z" fill="white"/>
<path d="M25.5465 19.9816C25.4624 20.1298 25.3686 20.271 25.266 20.4042C25.2225 20.42 25.1775 20.4349 25.131 20.4466C24.81 20.4042 24.5438 20.0481 24.306 20.0307C24.081 19.9774 23.5905 20.4283 23.358 20.4615C23.067 20.4108 22.722 20.0564 22.4633 20.0581C22.4633 19.9508 22.4708 19.8086 22.4708 19.7012C22.7708 19.7204 23.0588 20.1122 23.3603 20.1288C23.7308 20.0673 24.003 19.7029 24.2933 19.6904C24.5895 19.7487 24.87 20.1637 25.1663 20.1438C25.275 20.1363 25.41 20.0548 25.5465 19.9816Z" fill="white"/>
<path d="M24.9405 20.7707C24.8752 20.8339 24.8085 20.8946 24.7395 20.9519C24.5835 20.8439 24.4395 20.7275 24.309 20.7183C24.084 20.6643 23.5935 21.1148 23.361 21.1481C23.07 21.0982 22.7174 20.7433 22.4609 20.7449C22.4609 20.6377 22.4692 20.4956 22.4692 20.3892C22.7692 20.4075 23.0647 20.799 23.3655 20.8164C23.7367 20.7541 24.0082 20.39 24.2992 20.3776C24.5152 20.4208 24.7252 20.6577 24.9405 20.7707Z" fill="white"/>
<path d="M24.4199 21.1847C23.9468 21.4896 23.4113 21.6546 22.8644 21.6639C22.7387 21.5786 22.5971 21.5261 22.4504 21.5106C22.4504 21.4031 22.4587 21.2606 22.4587 21.153C22.7549 21.1722 23.0587 21.5648 23.3624 21.5814C23.7337 21.5198 24.0052 21.1547 24.2962 21.1422C24.3388 21.151 24.3803 21.1653 24.4199 21.1847Z" fill="white"/>
<path d="M22.4572 18.6105C22.4572 19.6372 22.4572 20.6273 22.4572 21.6539C20.5935 21.8435 19.0252 20.279 18.8857 18.4625H18.9L18.9097 18.6288C20.2327 19.5083 20.2597 17.8166 21.4515 18.9946C21.825 19.2548 22.161 18.7377 22.4572 18.6105Z" fill="#0067AB"/>
<path d="M20.9835 16.9255V17.4725" stroke="#1F1A17" stroke-width="0.09" stroke-miterlimit="10"/>
<path d="M20.9835 19.8686C20.8043 19.655 20.5523 19.6284 20.2801 19.8686C20.2051 19.9459 20.1893 20.0107 20.2801 19.9833C20.3873 19.9139 20.5091 19.8774 20.6333 19.8774C20.7574 19.8774 20.8793 19.9139 20.9865 19.9833C21.075 20.0182 21.0487 19.9517 20.9835 19.8686Z" fill="white"/>
<path d="M20.9835 19.2267C20.8043 19.0129 20.5523 18.9854 20.2801 19.2267C20.2051 19.3041 20.1893 19.369 20.2801 19.3407C20.3874 19.2717 20.5092 19.2353 20.6333 19.2353C20.7573 19.2353 20.8792 19.2717 20.9865 19.3407C21.075 19.3748 21.0487 19.3083 20.9835 19.2267Z" fill="white"/>
<path d="M20.9835 20.6244C20.8043 20.4096 20.5523 20.3829 20.2801 20.6244C20.2051 20.703 20.1893 20.7681 20.2801 20.7397C20.3873 20.6702 20.5092 20.6336 20.6333 20.6336C20.7574 20.6336 20.8792 20.6702 20.9865 20.7397C21.075 20.774 21.0487 20.7071 20.9835 20.6244Z" fill="white"/>
<path d="M21.9548 19.8431C21.7755 20.0569 21.5235 20.0835 21.252 19.8431C21.177 19.765 21.1612 19.7001 21.252 19.7284C21.3591 19.7975 21.4809 19.834 21.6049 19.834C21.7289 19.834 21.8506 19.7975 21.9578 19.7284C22.0425 19.6943 22.02 19.7608 21.9548 19.8431Z" fill="white"/>
<path d="M21.9548 20.4861C21.7755 20.6998 21.5235 20.7264 21.252 20.4861C21.177 20.4088 21.1612 20.3431 21.252 20.3714C21.3591 20.4408 21.4809 20.4774 21.6049 20.4774C21.7289 20.4774 21.8507 20.4408 21.9578 20.3714C22.0425 20.3381 22.02 20.4038 21.9548 20.4861Z" fill="white"/>
<path d="M21.9548 19.0875C21.7755 19.3025 21.5235 19.3292 21.252 19.0875C21.177 19.01 21.1612 18.9451 21.252 18.9734C21.3591 19.0427 21.4809 19.0792 21.6049 19.0792C21.7289 19.0792 21.8506 19.0427 21.9578 18.9734C22.0425 18.9392 22.02 19.0059 21.9548 19.0875Z" fill="white"/>
<path d="M20.0122 19.8431C19.8329 20.0569 19.5802 20.0835 19.3087 19.8431C19.2338 19.765 19.218 19.7001 19.3087 19.7284C19.416 19.7975 19.5379 19.834 19.662 19.834C19.786 19.834 19.9079 19.7975 20.0152 19.7284C20.0999 19.6943 20.0767 19.7608 20.0122 19.8431Z" fill="white"/>
<path d="M20.0121 20.4861C19.962 20.5475 19.9 20.5953 19.8306 20.6259C19.7861 20.5776 19.7434 20.5277 19.7024 20.4762C19.8128 20.4699 19.9201 20.434 20.0151 20.3714C20.0999 20.3381 20.0766 20.4038 20.0121 20.4861Z" fill="white"/>
<path d="M20.0122 19.0875C19.8329 19.3025 19.5802 19.3292 19.3087 19.0875C19.2338 19.01 19.218 18.9451 19.3087 18.9734C19.416 19.0427 19.5379 19.0792 19.662 19.0792C19.786 19.0792 19.9079 19.0427 20.0152 18.9734C20.0999 18.9392 20.0767 19.0059 20.0122 19.0875Z" fill="white"/>
<path d="M21.9548 21.1921C21.7755 21.4056 21.5235 21.433 21.252 21.1921C21.177 21.1149 21.1612 21.0501 21.252 21.0783C21.3592 21.1473 21.4809 21.1836 21.6049 21.1836C21.7288 21.1836 21.8506 21.1473 21.9578 21.0783C22.0425 21.0443 22.02 21.1107 21.9548 21.1921Z" fill="white"/>
<path d="M21.0668 18.5138C20.9595 18.4199 20.859 18.3592 20.7848 18.2993C20.7422 18.2725 20.7071 18.2331 20.6835 18.1854C20.7105 17.9917 21.1943 17.6308 21.3263 17.5111C21.5595 17.2974 21.8108 17.1187 22.119 17.0538C22.2332 17.1232 22.3228 17.2334 22.3733 17.3664C22.4295 17.4962 22.4048 17.6433 22.452 17.7822C22.4985 17.6757 22.602 17.4637 22.6568 17.3664C22.7115 17.2692 22.866 16.8875 23.0408 16.8867C23.2283 16.9341 23.4818 17.1361 23.559 17.3598C23.3912 17.5621 23.2086 17.7487 23.013 17.9177C23.2515 17.7132 23.3378 17.5593 23.5718 17.3457C23.8058 16.9166 23.8628 16.5466 24.1718 16.481C24.2948 16.5516 24.6728 17.2866 24.729 17.4172C24.7853 17.5477 24.1553 18.0665 24.0728 18.1813C24.162 18.1048 24.5228 17.6666 24.8325 17.3798C24.9751 17.2405 25.1393 17.1309 25.317 17.0563C25.44 17.1262 25.7528 17.2392 25.809 17.3689C25.8653 17.4986 25.9943 17.6458 26.0415 17.7847L25.989 18.6594C24.666 19.539 24.639 17.847 23.4473 19.0252C23.0498 19.3004 22.7933 18.6685 22.4993 18.6028C22.485 18.6024 22.471 18.6064 22.4588 18.6145C22.1625 18.7417 21.8288 19.2588 21.4545 18.9994C20.2628 17.8213 20.2478 19.5132 18.9248 18.6336C18.9045 18.6336 18.9165 18.597 18.9015 18.5263C18.8925 18.36 18.8723 18.2835 18.864 18.1197C18.921 17.9817 18.9008 17.8346 18.969 17.704C19.0366 17.5639 19.1454 17.4536 19.2773 17.3914C19.624 17.4611 19.9518 17.6175 20.2358 17.8487C20.517 18.0599 20.7788 18.3093 21.0668 18.5138Z" fill="#DA251D"/>
<path d="M21.0668 18.5138C20.9595 18.4199 20.859 18.3592 20.7848 18.2993C20.7422 18.2725 20.7071 18.2331 20.6835 18.1854C20.7105 17.9917 21.1943 17.6308 21.3263 17.5111C21.5595 17.2974 21.8108 17.1187 22.119 17.0538C22.2332 17.1232 22.3228 17.2334 22.3733 17.3664C22.4295 17.4962 22.4048 17.6433 22.452 17.7822C22.4985 17.6757 22.602 17.4637 22.6568 17.3664C22.7115 17.2692 22.866 16.8875 23.0408 16.8867C23.2283 16.9341 23.4818 17.1361 23.559 17.3598C23.3912 17.5621 23.2086 17.7487 23.013 17.9177C23.2515 17.7132 23.3378 17.5593 23.5718 17.3457C23.8058 16.9166 23.8628 16.5466 24.1718 16.481C24.2948 16.5516 24.6728 17.2866 24.729 17.4172C24.7853 17.5477 24.1553 18.0665 24.0728 18.1813C24.162 18.1048 24.5228 17.6666 24.8325 17.3798C24.9751 17.2405 25.1393 17.1309 25.317 17.0563C25.44 17.1262 25.7528 17.2392 25.809 17.3689C25.8653 17.4986 25.9943 17.6458 26.0415 17.7847L25.989 18.6594C24.666 19.539 24.639 17.847 23.4473 19.0252C23.0498 19.3004 22.7933 18.6685 22.4993 18.6028C22.485 18.6024 22.471 18.6064 22.4588 18.6145C22.1625 18.7417 21.8288 19.2588 21.4545 18.9994C20.2628 17.8213 20.2478 19.5132 18.9248 18.6336C18.9045 18.6336 18.9165 18.597 18.9015 18.5263C18.8925 18.36 18.8723 18.2835 18.864 18.1197C18.921 17.9817 18.9008 17.8346 18.969 17.704C19.0366 17.5639 19.1454 17.4536 19.2773 17.3914C19.624 17.4611 19.9518 17.6175 20.2358 17.8487C20.517 18.0599 20.7788 18.3093 21.0668 18.5138Z" stroke="#1F1A17" stroke-width="0.09" stroke-miterlimit="10"/>
<path d="M22.4557 14.2013V21.6707" stroke="#1F1A17" stroke-width="0.09" stroke-miterlimit="10"/>
<path d="M26.0386 12.0017V18.0902C26.0362 19.0374 25.6957 19.9451 25.0914 20.6149C24.4871 21.2847 23.6682 21.6622 22.8136 21.6648H22.0966C21.2421 21.6622 20.4232 21.2847 19.8189 20.6149C19.2146 19.9451 18.8741 19.0374 18.8717 18.0902V12.0017H26.0386Z" stroke="#1F1A17" stroke-width="0.09" stroke-miterlimit="10"/>
<path d="M17.6589 15.3277C17.7294 14.9952 17.8089 14.6777 17.9889 14.4657C18.011 14.4391 18.0411 14.4222 18.0736 14.418C18.1061 14.4139 18.1388 14.4229 18.1659 14.4432C18.1833 14.4559 18.1993 14.4707 18.2139 14.4873L18.3286 14.863L18.7846 16.3643L18.7756 16.3061L18.7059 15.8398C18.5974 15.1127 18.4889 14.3856 18.3804 13.6585C18.3136 13.5347 18.1411 13.4549 18.0406 13.5829C17.9861 13.6297 17.9358 13.6823 17.8906 13.74C17.9551 13.5521 18.0174 13.3526 18.0759 13.1373C18.1494 12.9458 18.1753 12.736 18.1509 12.5296C18.1306 12.3268 17.8936 12.0799 17.8276 11.8779C17.6498 12.3873 17.5098 12.9119 17.4091 13.4465C17.3341 13.8356 17.4264 14.3726 17.3551 14.7425C17.3131 14.5122 17.2704 14.2786 17.2239 14.0417C17.1165 13.4701 16.9699 12.9085 16.7851 12.3617C16.7163 12.5574 16.6685 12.7614 16.6426 12.9694C16.6181 13.1757 16.644 13.3856 16.7176 13.5771C16.7754 13.7874 16.8354 13.9827 16.8984 14.1673C16.8031 14.0492 16.6908 13.9495 16.5661 13.8722C16.4319 13.7441 16.2001 13.8248 16.1101 13.9478C15.9301 14.85 15.7496 15.7522 15.5686 16.6544C15.5761 16.6345 15.5844 16.6154 15.5926 16.5954L16.3336 14.7774C16.3698 14.7452 16.4121 14.7225 16.4574 14.7109C16.52 14.6993 16.5843 14.7151 16.6366 14.755C17.0439 15.1157 17.0686 15.7874 17.3004 16.2845C17.3926 16.4508 17.3356 16.2912 17.4369 16.5181L17.5329 17.3677C17.4226 16.9321 17.2269 16.5364 16.7829 16.2779C16.6329 16.1498 16.3816 16.2305 16.2834 16.3535C16.0834 17.2557 15.8854 18.1576 15.6894 19.0593L15.7164 19.0011C15.9869 18.3948 16.2574 17.7888 16.5279 17.1831C16.568 17.151 16.6137 17.1283 16.6621 17.1166C16.7305 17.1045 16.8005 17.1201 16.8594 17.1607C17.2561 17.4807 17.3221 18.0468 17.5096 18.5173C17.5006 18.558 17.4909 18.6004 17.4804 18.6362C17.3602 18.5186 17.2247 18.4219 17.0784 18.3494C16.9119 18.2214 16.6284 18.3012 16.5159 18.425C16.2924 19.3272 16.0691 20.2292 15.8461 21.1308L15.8761 21.0726L16.7911 19.2538C16.8372 19.2224 16.888 19.2004 16.9411 19.189C17.0184 19.1758 17.0974 19.191 17.1661 19.2322C17.6101 19.5506 17.6866 20.1117 17.8944 20.5805L17.9139 20.7543C17.8297 20.7271 17.7407 20.7233 17.6549 20.7433C17.5691 20.7633 17.489 20.8065 17.4219 20.869C17.1989 21.7717 16.9759 22.674 16.7529 23.5756L16.7829 23.5166L17.7001 21.6969C17.7437 21.6672 17.7926 21.6482 17.8434 21.6412C17.9023 21.6343 17.962 21.6417 18.0181 21.6629L18.2431 23.6812L18.5251 22.5016L18.4854 22.1691C18.5259 22.1377 18.564 22.1027 18.5994 22.0644L19.6794 22.8507C19.7214 22.9006 19.7634 22.9513 19.8024 23.0029L19.9524 23.0502L20.1091 23.1633L20.0214 23.0719C21.3286 23.4767 22.8489 23.9389 23.3829 24.7926C23.6079 24.8566 23.7676 24.771 23.7766 24.3562C23.0971 23.2755 20.4129 22.7377 19.1371 22.0835L18.8326 21.731C18.9544 21.5248 19.135 21.3697 19.3456 21.2904C19.4319 21.2628 19.5228 21.2576 19.6111 21.2755C19.6426 21.2824 19.6737 21.2915 19.7041 21.3029L20.0041 21.6313L20.6131 22.2963L20.5989 22.2647L20.5239 22.0984C20.3394 21.6845 20.1544 21.2708 19.9689 20.8573C19.7981 20.7756 19.6071 20.7615 19.4281 20.8174C18.9099 20.9629 18.7044 21.1973 18.5911 21.4492C18.5161 21.3661 18.4411 21.283 18.3661 21.1998L18.3616 21.1666L18.3766 21.1766C18.3706 21.1674 18.3654 21.1583 18.3601 21.1491L18.1651 19.5356C18.2032 19.3662 18.2808 19.2108 18.3901 19.0851C18.4098 19.0659 18.4347 19.0545 18.4609 19.0527C18.4871 19.0509 18.5131 19.0588 18.5349 19.0751C18.5457 19.0825 18.556 19.0908 18.5656 19.1L18.6241 19.2663C18.7516 19.6298 18.8794 19.9928 19.0074 20.3553L19.0006 20.3162L18.9354 19.9355C18.8554 19.4716 18.7749 19.0078 18.6939 18.5439C18.6421 18.4608 18.5086 18.4076 18.4299 18.4932C18.2758 18.6095 18.16 18.7781 18.0999 18.9737L17.9184 17.4641C17.9608 17.3461 18.0237 17.2385 18.1036 17.1474C18.1257 17.1241 18.1542 17.1097 18.1845 17.1065C18.2148 17.1034 18.2453 17.1116 18.2709 17.1299C18.2862 17.1408 18.3008 17.153 18.3144 17.1665L18.4111 17.4591L18.8469 18.7783C18.8469 18.7617 18.8416 18.7451 18.8386 18.7276C18.8154 18.5863 18.7929 18.4458 18.7704 18.3045C18.6704 17.6877 18.5704 17.0712 18.4704 16.4549C18.4081 16.3485 18.2454 16.2804 18.1531 16.3893C18.0202 16.4938 17.9122 16.6324 17.8381 16.7932L17.6589 15.3277ZM17.5284 18.6852C17.5396 18.6686 17.5494 18.6511 17.5591 18.6337C17.5991 18.7222 17.6474 18.8057 17.7031 18.8831L17.7084 18.9288C17.6558 18.8412 17.5955 18.7596 17.5284 18.6852Z" fill="#00923F"/>
<path d="M17.6589 15.3277C17.7294 14.9952 17.8089 14.6777 17.9889 14.4657C18.011 14.4391 18.0411 14.4222 18.0736 14.418C18.1061 14.4139 18.1388 14.4229 18.1659 14.4432C18.1833 14.4559 18.1993 14.4707 18.2139 14.4873L18.3286 14.863L18.7846 16.3643L18.7756 16.3061L18.7059 15.8398C18.5974 15.1127 18.4889 14.3856 18.3804 13.6585C18.3136 13.5347 18.1411 13.4549 18.0406 13.5829C17.9861 13.6297 17.9358 13.6823 17.8906 13.74C17.9551 13.5521 18.0174 13.3526 18.0759 13.1373C18.1494 12.9458 18.1753 12.736 18.1509 12.5296C18.1306 12.3268 17.8936 12.0799 17.8276 11.8779C17.6498 12.3873 17.5098 12.9119 17.4091 13.4465C17.3341 13.8356 17.4264 14.3726 17.3551 14.7425C17.3131 14.5122 17.2704 14.2786 17.2239 14.0417C17.1165 13.4701 16.9699 12.9085 16.7851 12.3617C16.7163 12.5574 16.6685 12.7614 16.6426 12.9694C16.6181 13.1757 16.644 13.3856 16.7176 13.5771C16.7754 13.7874 16.8354 13.9827 16.8984 14.1673C16.8031 14.0492 16.6908 13.9495 16.5661 13.8722C16.4319 13.7441 16.2001 13.8248 16.1101 13.9478C15.9301 14.85 15.7496 15.7522 15.5686 16.6544C15.5761 16.6345 15.5844 16.6154 15.5926 16.5954L16.3336 14.7774C16.3698 14.7452 16.4121 14.7225 16.4574 14.7109C16.52 14.6993 16.5843 14.7151 16.6366 14.755C17.0439 15.1157 17.0686 15.7874 17.3004 16.2845C17.3926 16.4508 17.3356 16.2912 17.4369 16.5181L17.5329 17.3677C17.4226 16.9321 17.2269 16.5364 16.7829 16.2779C16.6329 16.1498 16.3816 16.2305 16.2834 16.3535C16.0834 17.2557 15.8854 18.1576 15.6894 19.0593L15.7164 19.0011C15.9869 18.3948 16.2574 17.7888 16.5279 17.1831C16.568 17.151 16.6137 17.1283 16.6621 17.1166C16.7305 17.1045 16.8005 17.1201 16.8594 17.1607C17.2561 17.4807 17.3221 18.0468 17.5096 18.5173C17.5006 18.558 17.4909 18.6004 17.4804 18.6362C17.3602 18.5186 17.2247 18.4219 17.0784 18.3494C16.9119 18.2214 16.6284 18.3012 16.5159 18.425C16.2924 19.3272 16.0691 20.2292 15.8461 21.1308L15.8761 21.0726L16.7911 19.2538C16.8372 19.2224 16.888 19.2004 16.9411 19.189C17.0184 19.1758 17.0974 19.191 17.1661 19.2322C17.6101 19.5506 17.6866 20.1117 17.8944 20.5805L17.9139 20.7543C17.8297 20.7271 17.7407 20.7233 17.6549 20.7433C17.5691 20.7633 17.489 20.8065 17.4219 20.869C17.1989 21.7717 16.9759 22.674 16.7529 23.5756L16.7829 23.5166L17.7001 21.6969C17.7437 21.6672 17.7926 21.6482 17.8434 21.6412C17.9023 21.6343 17.962 21.6417 18.0181 21.6629L18.2431 23.6812L18.5251 22.5016L18.4854 22.1691C18.5259 22.1377 18.564 22.1027 18.5994 22.0644L19.6794 22.8507C19.7214 22.9006 19.7634 22.9513 19.8024 23.0029L19.9524 23.0502L20.1091 23.1633L20.0214 23.0719C21.3286 23.4767 22.8489 23.9389 23.3829 24.7926C23.6079 24.8566 23.7676 24.771 23.7766 24.3562C23.0971 23.2755 20.4129 22.7377 19.1371 22.0835L18.8326 21.731C18.9544 21.5248 19.135 21.3697 19.3456 21.2904C19.4319 21.2628 19.5228 21.2576 19.6111 21.2755C19.6426 21.2824 19.6737 21.2915 19.7041 21.3029L20.0041 21.6313L20.6131 22.2963L20.5989 22.2647L20.5239 22.0984C20.3394 21.6845 20.1544 21.2708 19.9689 20.8573C19.7981 20.7756 19.6071 20.7615 19.4281 20.8174C18.9099 20.9629 18.7044 21.1973 18.5911 21.4492C18.5161 21.3661 18.4411 21.283 18.3661 21.1998L18.3616 21.1666L18.3766 21.1766C18.3706 21.1674 18.3654 21.1583 18.3601 21.1491L18.1651 19.5356C18.2032 19.3662 18.2808 19.2108 18.3901 19.0851C18.4098 19.0659 18.4347 19.0545 18.4609 19.0527C18.4871 19.0509 18.5131 19.0588 18.5349 19.0751C18.5457 19.0825 18.556 19.0908 18.5656 19.1L18.6241 19.2663C18.7516 19.6298 18.8794 19.9928 19.0074 20.3553L19.0006 20.3162L18.9354 19.9355C18.8554 19.4716 18.7749 19.0078 18.6939 18.5439C18.6421 18.4608 18.5086 18.4076 18.4299 18.4932C18.2758 18.6095 18.16 18.7781 18.0999 18.9737L17.9184 17.4641C17.9608 17.3461 18.0237 17.2385 18.1036 17.1474C18.1257 17.1241 18.1542 17.1097 18.1845 17.1065C18.2148 17.1034 18.2453 17.1116 18.2709 17.1299C18.2862 17.1408 18.3008 17.153 18.3144 17.1665L18.4111 17.4591L18.8469 18.7783C18.8469 18.7617 18.8416 18.7451 18.8386 18.7276C18.8154 18.5863 18.7929 18.4458 18.7704 18.3045C18.6704 17.6877 18.5704 17.0712 18.4704 16.4549C18.4081 16.3485 18.2454 16.2804 18.1531 16.3893C18.0202 16.4938 17.9122 16.6324 17.8381 16.7932L17.6589 15.3277ZM17.5284 18.6852C17.5396 18.6686 17.5494 18.6511 17.5591 18.6337C17.5991 18.7222 17.6474 18.8057 17.7031 18.8831L17.7084 18.9288C17.6558 18.8412 17.5955 18.7596 17.5284 18.6852V18.6852Z" stroke="#0A0B0C" stroke-width="0.09" stroke-miterlimit="10"/>
<path d="M16.7948 11.8571C16.9741 12.7889 17.1976 13.769 17.3768 14.7008C17.3551 13.616 17.5103 12.7831 17.6461 11.907L17.4331 12.3168C17.3831 12.1599 17.3308 12.0028 17.2763 11.8455C17.2353 12.0361 17.1943 12.2264 17.1533 12.4165C17.0333 12.2303 16.9138 12.0439 16.7948 11.8571Z" fill="#F8C300"/>
<path d="M16.7948 11.8571C16.9741 12.7889 17.1976 13.769 17.3768 14.7008C17.3551 13.616 17.5103 12.7831 17.6461 11.907L17.4331 12.3168C17.3831 12.1599 17.3308 12.0028 17.2763 11.8455C17.2353 12.0361 17.1943 12.2264 17.1533 12.4165C17.0333 12.2303 16.9138 12.0439 16.7948 11.8571Z" stroke="#0A0B0C" stroke-width="0.09" stroke-miterlimit="10"/>
<path d="M16.6681 11.6758C16.6681 11.6627 16.6646 11.6498 16.658 11.6389C16.6515 11.628 16.6422 11.6196 16.6313 11.6146C16.6205 11.6096 16.6085 11.6083 16.597 11.611C16.5855 11.6136 16.5749 11.62 16.5667 11.6293C16.5584 11.6386 16.5528 11.6505 16.5506 11.6634C16.5484 11.6763 16.5497 11.6896 16.5543 11.7017C16.5589 11.7138 16.5666 11.724 16.5764 11.7312C16.5863 11.7384 16.5978 11.7421 16.6096 11.7419C16.6252 11.7417 16.64 11.7346 16.651 11.7223C16.662 11.7099 16.6681 11.6932 16.6681 11.6758Z" fill="#0A0B0C"/>
<path d="M16.6087 11.6217V11.5992H16.6245H16.6305V11.6233H16.6162V11.6017H16.596L16.6087 11.6217ZM16.5562 11.6756H16.542V11.6515H16.548H16.5645V11.6739H16.5435V11.6939L16.5562 11.6756ZM16.6087 11.7304V11.7528H16.5862V11.7287H16.6005V11.7487H16.6192L16.6087 11.7304ZM16.6604 11.6756H16.6747V11.6997H16.6529V11.6773H16.6709V11.6549L16.6604 11.6756Z" fill="#1F1A17"/>
<path d="M16.8158 11.7327C16.8156 11.7197 16.812 11.7071 16.8054 11.6964C16.7988 11.6857 16.7894 11.6775 16.7785 11.6726C16.7676 11.6678 16.7557 11.6667 16.7442 11.6694C16.7328 11.6721 16.7223 11.6785 16.7141 11.6878C16.7059 11.697 16.7004 11.7088 16.6983 11.7215C16.6961 11.7343 16.6974 11.7475 16.7021 11.7594C16.7067 11.7713 16.7144 11.7814 16.7242 11.7885C16.7341 11.7955 16.7456 11.7992 16.7573 11.7991C16.7651 11.799 16.7727 11.7972 16.7799 11.7938C16.7871 11.7904 16.7935 11.7854 16.799 11.7793C16.8044 11.7731 16.8087 11.7658 16.8116 11.7578C16.8145 11.7498 16.8159 11.7413 16.8158 11.7327Z" fill="#0A0B0C"/>
<path d="M16.7566 11.679V11.6566H16.7723V11.6608V11.684H16.7581V11.6624H16.7379L16.7566 11.679ZM16.7049 11.7329H16.6899V11.7097V11.7055H16.7064V11.7279H16.6854V11.747L16.7049 11.7329ZM16.7566 11.7876V11.8099H16.7341V11.7859H16.7491V11.8058H16.7678L16.7566 11.7876ZM16.8083 11.7329H16.8225V11.7569H16.8008V11.7345H16.8188V11.7121L16.8083 11.7329Z" fill="#1F1A17"/>
<path d="M16.7645 11.4962C16.7644 11.4832 16.7608 11.4705 16.7541 11.4598C16.7475 11.449 16.7381 11.4407 16.7272 11.4359C16.7164 11.431 16.7044 11.4299 16.693 11.4326C16.6815 11.4353 16.671 11.4417 16.6628 11.4511C16.6546 11.4604 16.6491 11.4722 16.647 11.485C16.6449 11.4978 16.6462 11.5111 16.6508 11.5231C16.6554 11.535 16.6631 11.5452 16.673 11.5523C16.6828 11.5594 16.6943 11.5631 16.706 11.563C16.7138 11.5629 16.7215 11.5611 16.7286 11.5576C16.7358 11.5542 16.7423 11.5493 16.7477 11.5431C16.7531 11.5369 16.7574 11.5296 16.7603 11.5215C16.7632 11.5135 16.7646 11.5049 16.7645 11.4962Z" fill="#0A0B0C"/>
<path d="M16.7048 11.4403V11.418H16.7205V11.4221V11.4453H16.7063V11.4718H16.686L16.7048 11.4403ZM16.653 11.4942H16.638V11.4718H16.6545V11.4942H16.6335V11.514L16.653 11.4942ZM16.7048 11.5488V11.5712H16.6823V11.567V11.543H16.6973V11.5629H16.716L16.7048 11.5488ZM16.7565 11.4942H16.7708V11.5182V11.5223H16.749V11.5H16.725V11.4776L16.7565 11.4942Z" fill="#1F1A17"/>
<path d="M16.9354 11.5857C16.9363 11.5765 16.9355 11.5673 16.9329 11.5585C16.9304 11.5497 16.9262 11.5416 16.9207 11.5348C16.9151 11.5279 16.9083 11.5224 16.9007 11.5186C16.8931 11.5149 16.8848 11.5129 16.8765 11.5129C16.8682 11.5129 16.8599 11.5149 16.8523 11.5186C16.8447 11.5224 16.8379 11.5279 16.8323 11.5348C16.8268 11.5416 16.8226 11.5497 16.8201 11.5585C16.8175 11.5673 16.8167 11.5765 16.8176 11.5857C16.8167 11.5948 16.8175 11.6041 16.8201 11.6129C16.8226 11.6217 16.8268 11.6297 16.8323 11.6366C16.8379 11.6435 16.8447 11.649 16.8523 11.6527C16.8599 11.6565 16.8682 11.6584 16.8765 11.6584C16.8848 11.6584 16.8931 11.6565 16.9007 11.6527C16.9083 11.649 16.9151 11.6435 16.9207 11.6366C16.9262 11.6297 16.9304 11.6217 16.9329 11.6129C16.9355 11.6041 16.9363 11.5948 16.9354 11.5857Z" fill="#0A0B0C"/>
<path d="M16.875 11.5311V11.5088H16.8945V11.5129V11.5369H16.8802V11.5171H16.875V11.5311ZM16.8232 11.5849H16.809V11.5609V11.5568H16.875V11.5791H16.8547V11.6006L16.8232 11.5849ZM16.875 11.6395V11.6619H16.8532V11.6577V11.6337H16.8675V11.6561H16.875V11.6395ZM16.9275 11.5849H16.9417V11.6089V11.613H16.875V11.6379H16.8937V11.618L16.9275 11.5849Z" fill="#1F1A17"/>
<path d="M16.9354 11.3643C16.9363 11.3551 16.9355 11.3459 16.9329 11.3371C16.9304 11.3283 16.9262 11.3202 16.9207 11.3133C16.9151 11.3064 16.9083 11.3009 16.9007 11.2971C16.8931 11.2933 16.8848 11.2914 16.8765 11.2914C16.8682 11.2914 16.8599 11.2933 16.8523 11.2971C16.8447 11.3009 16.8379 11.3064 16.8323 11.3133C16.8268 11.3202 16.8226 11.3283 16.8201 11.3371C16.8175 11.3459 16.8167 11.3551 16.8176 11.3643C16.8167 11.3735 16.8175 11.3828 16.8201 11.3916C16.8226 11.4004 16.8268 11.4085 16.8323 11.4154C16.8379 11.4223 16.8447 11.4278 16.8523 11.4315C16.8599 11.4353 16.8682 11.4373 16.8765 11.4373C16.8848 11.4373 16.8931 11.4353 16.9007 11.4315C16.9083 11.4278 16.9151 11.4223 16.9207 11.4154C16.9262 11.4085 16.9304 11.4004 16.9329 11.3916C16.9355 11.3828 16.9363 11.3735 16.9354 11.3643Z" fill="#0A0B0C"/>
<path d="M16.875 11.306V11.2837H16.8945V11.2878V11.3118H16.8802V11.292H16.875V11.306ZM16.8232 11.3605H16.809V11.3366V11.3324H16.875V11.306H16.8525V11.3283L16.8232 11.3605ZM16.875 11.4151V11.4374H16.8532V11.4134H16.8675V11.3886H16.89L16.875 11.4151ZM16.9275 11.3605H16.9417V11.3886H16.875V11.3663H16.8982V11.3465L16.9275 11.3605Z" fill="#1F1A17"/>
<path d="M17.1341 11.5777C17.1339 11.5647 17.1303 11.5521 17.1237 11.5414C17.1171 11.5307 17.1077 11.5224 17.0968 11.5176C17.086 11.5128 17.074 11.5117 17.0626 11.5144C17.0511 11.5171 17.0406 11.5235 17.0324 11.5327C17.0243 11.542 17.0188 11.5538 17.0166 11.5666C17.0145 11.5793 17.0158 11.5925 17.0204 11.6044C17.025 11.6163 17.0328 11.6265 17.0426 11.6336C17.0524 11.6406 17.0639 11.6443 17.0756 11.6442C17.0834 11.6441 17.0911 11.6422 17.0982 11.6388C17.1054 11.6355 17.1118 11.6305 17.1173 11.6244C17.1227 11.6182 17.127 11.6109 17.1299 11.6029C17.1328 11.5949 17.1342 11.5863 17.1341 11.5777Z" fill="#0A0B0C"/>
<path d="M17.0744 11.5222V11.4998H17.0902V11.523H17.0759V11.5546H17.0557L17.0744 11.5222ZM17.0219 11.5762H17.0077V11.5546H17.0242V11.577H17.0032V11.597L17.0219 11.5762ZM17.0744 11.631V11.6534H17.0519V11.6294H17.0249V11.6493H17.0437L17.0744 11.631ZM17.1262 11.5762H17.1404V11.6003H17.1187V11.5778H17.1367V11.5554L17.1262 11.5762Z" fill="#1F1A17"/>
<path d="M17.0905 11.8239C17.0914 11.8147 17.0906 11.8054 17.0881 11.7967C17.0856 11.7879 17.0814 11.7798 17.0758 11.7729C17.0703 11.7661 17.0635 11.7606 17.0558 11.7568C17.0482 11.753 17.04 11.7511 17.0316 11.7511C17.0233 11.7511 17.0151 11.753 17.0074 11.7568C16.9998 11.7606 16.993 11.7661 16.9875 11.7729C16.9819 11.7798 16.9777 11.7879 16.9752 11.7967C16.9727 11.8054 16.9719 11.8147 16.9728 11.8239C16.9719 11.833 16.9727 11.8423 16.9752 11.851C16.9777 11.8598 16.9819 11.8679 16.9875 11.8748C16.993 11.8816 16.9998 11.8871 17.0074 11.8909C17.0151 11.8947 17.0233 11.8966 17.0316 11.8966C17.04 11.8966 17.0482 11.8947 17.0558 11.8909C17.0635 11.8871 17.0703 11.8816 17.0758 11.8748C17.0814 11.8679 17.0856 11.8598 17.0881 11.851C17.0906 11.8423 17.0914 11.833 17.0905 11.8239Z" fill="#0A0B0C"/>
<path d="M17.0296 11.7696V11.7473H17.0461H17.0521V11.7713H17.0379V11.8043H17.0169L17.0296 11.7696ZM16.9779 11.8233H16.9636V11.7994H16.9696H16.9854V11.8217H16.9651V11.8431L16.9779 11.8233ZM17.0296 11.8778V11.9001H17.0079V11.8762H17.0221V11.8985H17.0401L17.0296 11.8778ZM17.0822 11.8233H17.1002V11.8473H17.0777V11.825H17.0964V11.8051L17.0822 11.8233Z" fill="#1F1A17"/>
<path d="M17.2964 11.6266C17.2964 11.6136 17.293 11.6009 17.2865 11.5902C17.28 11.5794 17.2707 11.571 17.2599 11.566C17.2491 11.5611 17.2371 11.5598 17.2257 11.5623C17.2142 11.5648 17.2036 11.5711 17.1953 11.5802C17.187 11.5894 17.1814 11.6011 17.1791 11.6138C17.1768 11.6265 17.178 11.6397 17.1825 11.6517C17.187 11.6637 17.1946 11.6739 17.2043 11.6811C17.214 11.6883 17.2255 11.6921 17.2372 11.6921C17.2529 11.6921 17.268 11.6852 17.2791 11.6729C17.2902 11.6606 17.2964 11.644 17.2964 11.6266Z" fill="#0A0B0C"/>
<path d="M17.2364 11.5719V11.5494H17.2589V11.5536V11.5777H17.2439V11.5577H17.2394H17.2229L17.2364 11.5719ZM17.1847 11.6266H17.1704V11.6026V11.5984H17.1922V11.6208H17.1764H17.1712V11.6433L17.1847 11.6266ZM17.2364 11.6806V11.7039H17.2177V11.6997V11.6756H17.2319V11.698H17.2522L17.2364 11.6806ZM17.2882 11.6266H17.3032V11.6507V11.6549H17.2837V11.6316H17.3047V11.6117L17.2882 11.6266Z" fill="#1F1A17"/>
<path d="M17.1262 11.3644C17.1262 11.3513 17.1227 11.3385 17.1162 11.3276C17.1096 11.3167 17.1004 11.3083 17.0895 11.3033C17.0786 11.2983 17.0667 11.2971 17.0552 11.2997C17.0437 11.3023 17.0331 11.3087 17.0249 11.318C17.0166 11.3273 17.0111 11.3392 17.0089 11.3521C17.0067 11.3649 17.0079 11.3783 17.0125 11.3903C17.0171 11.4024 17.0248 11.4126 17.0347 11.4198C17.0445 11.427 17.056 11.4307 17.0678 11.4305C17.0833 11.4303 17.0982 11.4233 17.1091 11.4109C17.1201 11.3985 17.1262 11.3818 17.1262 11.3644Z" fill="#0A0B0C"/>
<path d="M17.067 11.306V11.2837H17.0858V11.2878V11.3118H17.0715V11.2895H17.0489L17.067 11.306ZM17.0144 11.3605H17.0001V11.3366V11.3324H17.0196V11.306H16.9963V11.3258L17.0144 11.3605ZM17.067 11.4151V11.4374H17.0444V11.4134H17.0587V11.4332H17.082L17.067 11.4151ZM17.1188 11.3605H17.1331V11.3886H17.1113V11.3663H17.1339V11.344L17.1188 11.3605Z" fill="#1F1A17"/>
<path d="M17.1193 11.1734L17.1419 11.1129C17.1347 11.1096 17.127 11.1079 17.1193 11.1079C17.1073 11.1076 17.0955 11.1112 17.0854 11.1183C17.0753 11.1255 17.0673 11.1357 17.0626 11.1479C17.0578 11.16 17.0564 11.1734 17.0586 11.1864C17.0609 11.1994 17.0665 11.2114 17.075 11.2208C17.0834 11.2302 17.0942 11.2366 17.106 11.2392C17.1177 11.2418 17.1299 11.2405 17.141 11.2354C17.1521 11.2303 17.1615 11.2216 17.1681 11.2106C17.1747 11.1996 17.1781 11.1866 17.178 11.1734C17.1778 11.1606 17.1744 11.148 17.168 11.1373C17.1616 11.1266 17.1525 11.1181 17.1419 11.1129L17.1193 11.1734Z" fill="#0A0B0C"/>
<path d="M17.1435 11.103L17.148 11.1188L17.1248 11.1795L17.112 11.1687L17.1353 11.108L17.1435 11.103ZM17.1435 11.103L17.1525 11.1072L17.148 11.1188L17.1435 11.103ZM17.1188 11.1196V11.0972H17.1435L17.1398 11.118H17.1188V11.1196ZM17.0663 11.1737H17.052V11.1504H17.0745V11.1729H17.1V11.192L17.0663 11.1737ZM17.1188 11.2286V11.2511H17.1V11.2469V11.2228H17.1143V11.2428H17.133L17.1188 11.2286ZM17.1705 11.1737H17.1848V11.1978V11.202H17.163V11.1795H17.181V11.1571L17.1705 11.1737ZM17.148 11.1188L17.1353 11.108L17.1435 11.103H17.148V11.1313H17.1338V11.108V11.103H17.1285L17.148 11.1188ZM17.1353 11.108V11.0997H17.1405L17.1353 11.108ZM17.1248 11.1795L17.112 11.1687L17.1353 11.108L17.148 11.1188L17.1248 11.1795Z" fill="#1F1A17"/>
<path d="M17.3479 11.1748C17.3477 11.1618 17.3442 11.1491 17.3376 11.1383C17.331 11.1276 17.3217 11.1193 17.3108 11.1144C17.3 11.1095 17.2881 11.1084 17.2767 11.111C17.2653 11.1136 17.2548 11.12 17.2466 11.1292C17.2384 11.1385 17.2328 11.1503 17.2306 11.163C17.2284 11.1758 17.2296 11.189 17.2341 11.201C17.2386 11.213 17.2462 11.2233 17.2559 11.2305C17.2656 11.2377 17.277 11.2416 17.2887 11.2416C17.2965 11.2416 17.3043 11.2398 17.3115 11.2365C17.3188 11.2331 17.3253 11.2282 17.3308 11.222C17.3363 11.2157 17.3407 11.2084 17.3436 11.2003C17.3465 11.1922 17.348 11.1835 17.3479 11.1748Z" fill="#0A0B0C"/>
<path d="M17.2882 11.1196V11.0972H17.3107V11.1205H17.2957V11.1013H17.2747L17.2882 11.1196ZM17.2364 11.1737H17.2222V11.1504H17.2439V11.1729H17.2237V11.1945L17.2364 11.1737ZM17.2882 11.2286V11.2511H17.2664V11.2469V11.2228H17.2807V11.2453H17.2987L17.2882 11.2286ZM17.3399 11.1737H17.3549V11.1978V11.202H17.3324V11.1795H17.3512V11.1596L17.3399 11.1737Z" fill="#1F1A17"/>
<path d="M17.3481 11.4048C17.3481 11.3918 17.3446 11.3792 17.3381 11.3684C17.3316 11.3577 17.3223 11.3493 17.3115 11.3443C17.3007 11.3394 17.2888 11.3381 17.2773 11.3406C17.2658 11.3431 17.2552 11.3494 17.247 11.3585C17.2387 11.3677 17.233 11.3793 17.2308 11.392C17.2285 11.4047 17.2296 11.4179 17.2341 11.4298C17.2386 11.4418 17.2462 11.452 17.2559 11.4592C17.2657 11.4664 17.2771 11.4702 17.2888 11.4702C17.3046 11.4702 17.3196 11.4633 17.3307 11.4511C17.3418 11.4388 17.3481 11.4221 17.3481 11.4048Z" fill="#0A0B0C"/>
<path d="M17.2881 11.3498V11.3274H17.3106V11.3315V11.3556H17.2956V11.3887H17.2769L17.2881 11.3498ZM17.2364 11.4045H17.2222V11.3804V11.3763H17.2439V11.3987H17.2259V11.421L17.2364 11.4045ZM17.2881 11.4583V11.4807H17.2724V11.4567H17.2866V11.4782H17.3069L17.2881 11.4583ZM17.3399 11.4045H17.3549V11.4285H17.3384V11.4061H17.3594V11.3862L17.3399 11.4045Z" fill="#1F1A17"/>
<path d="M17.475 11.6378C17.475 11.6249 17.4715 11.6123 17.465 11.6015C17.4585 11.5908 17.4492 11.5824 17.4384 11.5775C17.4276 11.5725 17.4157 11.5712 17.4042 11.5738C17.3927 11.5763 17.3822 11.5825 17.3739 11.5916C17.3656 11.6008 17.36 11.6124 17.3577 11.6251C17.3554 11.6377 17.3566 11.6509 17.3611 11.6628C17.3656 11.6747 17.3731 11.6849 17.3829 11.6921C17.3926 11.6993 17.4041 11.7031 17.4158 11.7031C17.4315 11.7031 17.4465 11.6962 17.4576 11.684C17.4687 11.6717 17.475 11.6551 17.475 11.6378Z" fill="#0A0B0C"/>
<path d="M17.4143 11.5805V11.5558H17.436V11.5632V11.5797H17.4218V11.5574H17.4165H17.4008L17.4143 11.5805ZM17.3625 11.635H17.3475V11.6152V11.611H17.37V11.6333H17.4H17.3955V11.6581L17.3625 11.635ZM17.4143 11.6886V11.7117H17.3948V11.7075V11.6383H17.4098V11.6622H17.4308L17.4143 11.6886ZM17.466 11.635H17.4803V11.6506V11.6581H17.4615V11.635H17.4825V11.6383L17.466 11.635Z" fill="#1F1A17"/>
<path d="M17.5334 11.3549C17.5333 11.3419 17.5297 11.3293 17.5231 11.3186C17.5165 11.3079 17.5072 11.2996 17.4963 11.2948C17.4855 11.29 17.4736 11.2888 17.4622 11.2914C17.4507 11.294 17.4402 11.3004 17.432 11.3096C17.4238 11.3188 17.4182 11.3305 17.416 11.3432C17.4138 11.3559 17.415 11.3691 17.4195 11.381C17.424 11.393 17.4316 11.4032 17.4413 11.4104C17.4511 11.4176 17.4625 11.4214 17.4742 11.4214C17.49 11.4212 17.505 11.4141 17.5161 11.4016C17.5272 11.3892 17.5334 11.3724 17.5334 11.3549Z" fill="#0A0B0C"/>
<path d="M17.4749 11.3008V11.2784H17.4907V11.2826V11.3057H17.4764V11.2842H17.4749V11.3008ZM17.4232 11.3545H17.4082V11.3347V11.3305H17.4749V11.3529H17.4539V11.3702L17.4232 11.3545ZM17.4749 11.4091V11.4314H17.4524V11.4273V11.4066H17.4674V11.424V11.4289H17.4749V11.4091ZM17.5266 11.3545H17.5409V11.3785V11.3826H17.4749V11.3603H17.4929V11.338L17.5266 11.3545Z" fill="#1F1A17"/>
<path d="M17.6951 11.5554C17.6951 11.5423 17.6916 11.5295 17.685 11.5186C17.6785 11.5077 17.6692 11.4993 17.6583 11.4943C17.6474 11.4894 17.6355 11.4881 17.624 11.4907C17.6124 11.4933 17.6019 11.4997 17.5936 11.509C17.5854 11.5183 17.5798 11.5301 17.5776 11.543C17.5754 11.5559 17.5767 11.5691 17.5813 11.5812C17.5859 11.5932 17.5936 11.6035 17.6034 11.6106C17.6133 11.6178 17.6248 11.6215 17.6366 11.6213C17.6443 11.6213 17.652 11.6196 17.6591 11.6163C17.6663 11.613 17.6728 11.6081 17.6782 11.602C17.6836 11.5958 17.6879 11.5885 17.6908 11.5805C17.6937 11.5725 17.6952 11.564 17.6951 11.5554Z" fill="#0A0B0C"/>
<path d="M17.6362 11.4983V11.4727H17.655V11.5553H17.6407V11.533H17.6182L17.6362 11.4983ZM17.5837 11.5528H17.5694V11.5288H17.5889V11.5511H17.5657V11.5553L17.5837 11.5528ZM17.6362 11.6073V11.6296H17.6167V11.5553H17.631V11.5751H17.6542L17.6362 11.6073ZM17.688 11.5528H17.7V11.5768H17.6812V11.5545H17.7037V11.5553L17.688 11.5528Z" fill="#1F1A17"/>
<path d="M17.7626 11.3557C17.7626 11.3427 17.7591 11.33 17.7526 11.3192C17.7461 11.3084 17.7368 11.3 17.726 11.295C17.7152 11.2901 17.7032 11.2888 17.6917 11.2913C17.6803 11.2938 17.6697 11.3001 17.6614 11.3093C17.6531 11.3185 17.6475 11.3302 17.6452 11.3429C17.6429 11.3556 17.6441 11.3688 17.6486 11.3808C17.653 11.3928 17.6606 11.4031 17.6704 11.4103C17.6801 11.4175 17.6916 11.4214 17.7033 11.4214C17.719 11.4214 17.7341 11.4145 17.7452 11.4022C17.7563 11.3898 17.7626 11.3731 17.7626 11.3557Z" fill="#0A0B0C"/>
<path d="M17.7 11.3008V11.2784H17.7225V11.2826V11.3066H17.7083V11.2867H17.7V11.3008ZM17.6483 11.3553H17.634V11.3314V11.3272H17.7V11.3495H17.682V11.3719L17.6483 11.3553ZM17.7 11.4091V11.4314H17.6783V11.4273V11.4041H17.6925V11.4256H17.7V11.4091ZM17.7525 11.3553H17.7667V11.3785V11.3826H17.7V11.3603H17.721V11.3413L17.7525 11.3553Z" fill="#1F1A17"/>
<path d="M17.9036 11.6099C17.9036 11.5926 17.8973 11.576 17.8862 11.5638C17.8751 11.5515 17.8601 11.5447 17.8444 11.5447C17.8287 11.5447 17.8136 11.5515 17.8025 11.5638C17.7914 11.576 17.7852 11.5926 17.7852 11.6099C17.7852 11.6272 17.7914 11.6437 17.8025 11.656C17.8136 11.6682 17.8287 11.675 17.8444 11.675C17.8601 11.675 17.8751 11.6682 17.8862 11.656C17.8973 11.6437 17.9036 11.6272 17.9036 11.6099Z" fill="#0A0B0C"/>
<path d="M17.8432 11.5547V11.5322H17.859H17.865V11.5564H17.8507V11.5347H17.8304L17.8432 11.5547ZM17.7914 11.6088H17.7749V11.5846H17.7809H17.7974V11.5547H17.7764V11.5747L17.7914 11.6088ZM17.8432 11.6637V11.6862H17.8207V11.682V11.6579H17.8357V11.6778H17.8545L17.8432 11.6637ZM17.895 11.6088H17.9092V11.6379V11.6421H17.8875V11.6196H17.9055V11.5971L17.895 11.6088Z" fill="#1F1A17"/>
<path d="M17.7328 11.8051C17.7328 11.7921 17.7293 11.7794 17.7228 11.7686C17.7163 11.7579 17.707 11.7495 17.6962 11.7445C17.6854 11.7395 17.6735 11.7382 17.662 11.7408C17.6505 11.7433 17.6399 11.7495 17.6316 11.7587C17.6233 11.7679 17.6177 11.7796 17.6154 11.7923C17.6131 11.805 17.6143 11.8182 17.6188 11.8301C17.6233 11.8421 17.6309 11.8524 17.6406 11.8596C17.6503 11.8668 17.6618 11.8706 17.6735 11.8706C17.6892 11.8706 17.7043 11.8637 17.7154 11.8514C17.7265 11.8391 17.7328 11.8224 17.7328 11.8051Z" fill="#0A0B0C"/>
<path d="M17.6729 11.7535V11.7311H17.6954V11.7352V11.7419V11.746V11.7627H17.6804V11.7377H17.6616L17.6729 11.7535ZM17.6249 11.8051H17.6099V11.7884V11.7843V11.7776V11.7735H17.6324V11.7959H17.6136V11.8209L17.6249 11.8051ZM17.6766 11.8591V11.8882H17.6609H17.6571H17.6519V11.884V11.8799V11.8051H17.6669V11.8292H17.6879L17.6766 11.8591ZM17.7284 11.8051H17.7434V11.825V11.8292V11.8333H17.7374H17.7337H17.7179V11.8109H17.7389V11.8051H17.7284Z" fill="#1F1A17"/>
<path d="M17.5258 11.9151C17.5256 11.9022 17.522 11.8895 17.5154 11.8788C17.5088 11.8681 17.4995 11.8598 17.4887 11.855C17.4778 11.8501 17.4659 11.849 17.4545 11.8516C17.443 11.8542 17.4325 11.8605 17.4243 11.8698C17.4161 11.879 17.4105 11.8907 17.4083 11.9034C17.4061 11.9162 17.4073 11.9293 17.4118 11.9413C17.4163 11.9533 17.4239 11.9635 17.4336 11.9707C17.4434 11.9779 17.4548 11.9817 17.4665 11.9817C17.4823 11.9815 17.4974 11.9744 17.5084 11.9619C17.5195 11.9494 17.5258 11.9326 17.5258 11.9151Z" fill="#0A0B0C"/>
<path d="M17.4659 11.8603V11.8378H17.4877V11.8453V11.8611H17.4727V11.8394H17.4517L17.4659 11.8603ZM17.4142 11.9144H17.3999V11.8944H17.4224V11.9169H17.4014V11.941L17.4142 11.9144ZM17.4659 11.9693V11.9918H17.4434V11.971H17.4584V11.996H17.4772L17.4659 11.9693ZM17.5177 11.9144H17.5327V11.931V11.9385H17.5109V11.971H17.5289V11.9485L17.5177 11.9144Z" fill="#1F1A17"/>
<path d="M17.3411 11.8402C17.3411 11.8272 17.3376 11.8145 17.331 11.8038C17.3245 11.793 17.3152 11.7846 17.3043 11.7797C17.2935 11.7748 17.2815 11.7735 17.27 11.7761C17.2585 11.7787 17.248 11.785 17.2397 11.7942C17.2315 11.8035 17.2259 11.8152 17.2237 11.828C17.2215 11.8407 17.2228 11.8539 17.2274 11.8658C17.232 11.8778 17.2397 11.8879 17.2495 11.895C17.2594 11.9021 17.2709 11.9058 17.2826 11.9056C17.2982 11.9054 17.313 11.8984 17.324 11.8862C17.3349 11.8739 17.3411 11.8574 17.3411 11.8402Z" fill="#0A0B0C"/>
<path d="M17.2816 11.7862V11.7638H17.2973V11.7878H17.2831V11.7679H17.2628L17.2816 11.7862ZM17.2291 11.84H17.2148V11.8168V11.8127H17.2313V11.835H17.2103V11.8549L17.2291 11.84ZM17.2816 11.8946V11.917H17.2591V11.9129V11.8888H17.2733V11.9087H17.2921L17.2816 11.8946ZM17.3333 11.84H17.3475V11.864V11.8681H17.3258V11.8458H17.3438V11.8259L17.3333 11.84Z" fill="#1F1A17"/>
<path d="M17.1753 12.037C17.1753 12.024 17.1718 12.0112 17.1652 12.0004C17.1587 11.9896 17.1494 11.9812 17.1385 11.9762C17.1277 11.9713 17.1157 11.97 17.1042 11.9726C17.0927 11.9752 17.0821 11.9816 17.0739 11.9908C17.0656 12.0001 17.06 12.0119 17.0578 12.0247C17.0556 12.0375 17.0569 12.0507 17.0615 12.0627C17.0661 12.0747 17.0738 12.0849 17.0836 12.092C17.0935 12.0991 17.105 12.1028 17.1168 12.1027C17.1245 12.1027 17.1322 12.101 17.1393 12.0976C17.1465 12.0943 17.153 12.0895 17.1584 12.0834C17.1639 12.0773 17.1682 12.07 17.1711 12.0621C17.1739 12.0541 17.1754 12.0456 17.1753 12.037Z" fill="#0A0B0C"/>
<path d="M17.1186 11.9835V11.9612H17.1404V11.9851H17.1261V11.9628H17.1036L17.1186 11.9835ZM17.0661 12.038H17.0519V12.014H17.0744V12.0363H17.0511V12.0561L17.0661 12.038ZM17.1186 12.0925V12.1147H17.0999V12.1106V12.0867H17.1141V12.1065H17.1374L17.1186 12.0925ZM17.1704 12.038H17.1846V12.0619V12.066H17.1659V12.0437H17.1884V12.0215L17.1704 12.038Z" fill="#1F1A17"/>
<path d="M16.7638 11.9713C16.7638 11.9582 16.7603 11.9454 16.7538 11.9345C16.7473 11.9237 16.7381 11.9152 16.7273 11.9102C16.7165 11.9052 16.7046 11.9039 16.6931 11.9064C16.6816 11.909 16.6711 11.9153 16.6628 11.9245C16.6546 11.9338 16.6489 11.9455 16.6466 11.9584C16.6444 11.9712 16.6455 11.9845 16.65 11.9965C16.6545 12.0086 16.6621 12.019 16.6718 12.0262C16.6815 12.0335 16.693 12.0374 16.7047 12.0374C16.7203 12.0374 16.7354 12.0304 16.7465 12.018C16.7576 12.0056 16.7638 11.9888 16.7638 11.9713Z" fill="#0A0B0C"/>
<path d="M16.7041 11.9177V11.8953H16.7267V11.8994V11.971H16.7124V11.951H16.7252H16.7086L16.7041 11.9177ZM16.65 11.971H16.6357V11.9468V11.9427H16.6575V11.9651H16.6418H16.6372V11.971H16.65ZM16.7019 12.025V12.0475H16.6831V12.0433V11.971H16.65V11.9926H16.6703L16.7019 12.025ZM16.7545 11.971H16.7687V11.9951V11.9992H16.7492V11.9768H16.7252V11.971H16.7545Z" fill="#1F1A17"/>
<path d="M17.2295 11.0172L17.2527 10.9566C17.2454 10.9532 17.2375 10.9516 17.2295 10.9517C17.2176 10.9515 17.2059 10.9553 17.1959 10.9625C17.186 10.9697 17.1782 10.9801 17.1735 10.9923C17.1689 11.0044 17.1677 11.0179 17.1699 11.0308C17.1722 11.0438 17.178 11.0557 17.1864 11.065C17.1948 11.0744 17.2056 11.0807 17.2172 11.0832C17.2289 11.0858 17.2411 11.0844 17.252 11.0793C17.263 11.0741 17.2724 11.0655 17.2789 11.0544C17.2854 11.0434 17.2888 11.0304 17.2887 11.0172C17.2886 11.0044 17.2852 10.9918 17.2788 10.981C17.2725 10.9703 17.2634 10.9618 17.2527 10.9566L17.2295 11.0172Z" fill="#0A0B0C"/>
<path d="M17.2545 10.9467L17.259 10.9626L17.2357 11.0233L17.2229 11.0125L17.2462 10.9517L17.2545 10.9467ZM17.2545 10.9467H17.2635L17.259 10.9584L17.2545 10.9467ZM17.2289 10.9634V10.9409H17.2545L17.25 10.9617H17.2289V10.9634ZM17.1771 11.0175H17.1628V10.9942V10.99H17.1846V11.0125H17.1643V11.0341L17.1771 11.0175ZM17.2289 11.0724V11.0948H17.2072V11.0907V11.0666H17.1749V11.089H17.1929L17.2289 11.0724ZM17.2808 11.0175H17.2958V11.0416V11.0458H17.2732V11.0233H17.25V11.0033L17.2808 11.0175ZM17.259 10.9626L17.2462 10.9517L17.2545 10.9467H17.259V10.9526V10.9784H17.244V10.9567V10.9501H17.2387L17.259 10.9626ZM17.2462 10.9517V10.9434H17.2515L17.2462 10.9517ZM17.2357 11.0233L17.2229 11.0125L17.2462 10.9517L17.259 10.9626L17.2357 11.0233Z" fill="#1F1A17"/>
<path d="M17.5033 11.1498L17.5266 11.0886C17.5192 11.0853 17.5113 11.0836 17.5033 11.0836C17.4889 11.0838 17.4749 11.09 17.4643 11.101C17.4537 11.112 17.4471 11.127 17.4458 11.1432C17.4445 11.1593 17.4486 11.1754 17.4573 11.1883C17.466 11.2012 17.4787 11.2101 17.493 11.2132C17.5072 11.2162 17.5219 11.2133 17.5343 11.2049C17.5468 11.1966 17.5559 11.1834 17.5601 11.1679C17.5643 11.1524 17.5632 11.1357 17.557 11.1211C17.5508 11.1064 17.54 11.0949 17.5266 11.0886L17.5033 11.1498Z" fill="#0A0B0C"/>
<path d="M17.5282 11.0785V11.0951L17.5058 11.1554L17.493 11.1438L17.5162 11.0835L17.5282 11.0785ZM17.5282 11.0785L17.5372 11.0827L17.532 11.0951L17.5282 11.0785ZM17.5028 11.0951V11.0728H17.5282L17.5237 11.0942H17.5028V11.0951ZM17.451 11.1496H17.4368V11.1215H17.4585V11.1438H17.4428H17.4375V11.1661L17.451 11.1496ZM17.5028 11.2033V11.2223H17.484V11.195H17.4983V11.2165H17.5192L17.5028 11.2033ZM17.5545 11.1496H17.5695V11.1694H17.55V11.1471H17.571V11.1298L17.5545 11.1496ZM17.532 11.0951L17.52 11.0835L17.5282 11.0785V11.086V11.1099H17.5132V11.081H17.5065L17.532 11.0951ZM17.52 11.0835V11.0761H17.526L17.52 11.0835ZM17.5095 11.1554L17.4968 11.1438L17.52 11.0835L17.532 11.0951L17.5095 11.1554Z" fill="#1F1A17"/>
<path d="M16.8899 11.1239L16.9131 11.0636C16.9057 11.0602 16.8979 11.0586 16.8899 11.0586C16.8754 11.0588 16.8615 11.0649 16.8509 11.0758C16.8403 11.0866 16.8337 11.1014 16.8324 11.1173C16.8311 11.1332 16.8352 11.1491 16.8439 11.1618C16.8526 11.1746 16.8653 11.1833 16.8795 11.1863C16.8937 11.1894 16.9085 11.1865 16.9209 11.1782C16.9332 11.17 16.9424 11.1569 16.9466 11.1417C16.9508 11.1264 16.9497 11.1099 16.9435 11.0955C16.9373 11.0811 16.9265 11.0697 16.9131 11.0636L16.8899 11.1239Z" fill="#0A0B0C"/>
<path d="M16.9147 11.0559L16.9185 11.0726L16.8953 11.1335L16.8833 11.1218L16.9057 11.0609L16.9147 11.0559ZM16.9147 11.0559H16.923L16.9185 11.0684L16.9147 11.0559ZM16.8893 11.0734V11.05H16.9147L16.9102 11.0717H16.8893V11.0734ZM16.8375 11.1276H16.8225V11.1118V11.1043H16.8263H16.845V11.1276H16.824V11.1518L16.8375 11.1276ZM16.8893 11.1827V11.2052H16.8668V11.1986V11.1819H16.8818V11.2069H16.8863H16.902L16.8893 11.1827ZM16.941 11.1276H16.956V11.1443V11.151H16.9335V11.1285H16.9492H16.9537V11.1034L16.941 11.1276ZM16.9185 11.0726L16.9057 11.0609L16.9147 11.0559H16.9185V11.0876H16.9035V11.0601H16.8998L16.9185 11.0726ZM16.9057 11.0609V11.0534H16.9117L16.9057 11.0609ZM16.8953 11.1335L16.8833 11.1218L16.9057 11.0609L16.9185 11.0726L16.8953 11.1335Z" fill="#1F1A17"/>
<path d="M16.6466 11.2726L16.6691 11.2117C16.662 11.2083 16.6543 11.2066 16.6466 11.2067C16.6321 11.2067 16.6181 11.2127 16.6074 11.2235C16.5966 11.2343 16.5898 11.2492 16.5884 11.2653C16.587 11.2814 16.591 11.2975 16.5996 11.3104C16.6082 11.3234 16.6209 11.3324 16.6351 11.3355C16.6494 11.3387 16.6641 11.3359 16.6766 11.3276C16.6891 11.3193 16.6983 11.3062 16.7025 11.2907C16.7068 11.2753 16.7057 11.2586 16.6995 11.244C16.6933 11.2294 16.6825 11.2179 16.6691 11.2117L16.6466 11.2726Z" fill="#0A0B0C"/>
<path d="M16.6702 11.2009L16.6747 11.2175L16.6514 11.2782L16.6387 11.2674L16.6619 11.2067L16.6702 11.2009ZM16.6702 11.2009H16.6792L16.6747 11.2134L16.6702 11.2009ZM16.6454 11.2184V11.1959H16.6702L16.6664 11.2175H16.6454V11.2184ZM16.5937 11.2724H16.5787V11.2491H16.5952V11.2225H16.5742V11.2425L16.5937 11.2724ZM16.6454 11.3273V11.3497H16.623V11.3456V11.3215H16.6379V11.3414H16.6567L16.6454 11.3273ZM16.6972 11.2724H16.7114V11.2965V11.3007H16.6897V11.2782H16.7077V11.2558L16.6972 11.2724ZM16.6747 11.2175L16.6619 11.2067L16.6702 11.2009V11.2325H16.6559V11.2076H16.6507L16.6747 11.2175ZM16.6619 11.2067V11.1984H16.6672L16.6619 11.2067ZM16.6514 11.2782L16.6387 11.2674L16.6619 11.2067L16.6747 11.2175L16.6514 11.2782Z" fill="#1F1A17"/>
<path d="M17.3788 10.8943L17.4013 10.8337C17.3942 10.8304 17.3865 10.8287 17.3788 10.8287C17.3631 10.8287 17.348 10.8356 17.3369 10.8479C17.3258 10.8602 17.3196 10.8769 17.3196 10.8943C17.3196 10.9117 17.3258 10.9283 17.3369 10.9406C17.348 10.9529 17.3631 10.9598 17.3788 10.9598C17.3866 10.9598 17.3942 10.9581 17.4014 10.9548C17.4085 10.9515 17.415 10.9467 17.4204 10.9406C17.4259 10.9345 17.4302 10.9273 17.4331 10.9193C17.436 10.9114 17.4374 10.9029 17.4373 10.8943C17.4373 10.8814 17.4338 10.8688 17.4274 10.8581C17.4211 10.8473 17.412 10.8389 17.4013 10.8337L17.3788 10.8943Z" fill="#0A0B0C"/>
<path d="M17.4 10.8229L17.4045 10.8394L17.3813 10.8996L17.3685 10.8881L17.3918 10.8279L17.4 10.8229ZM17.4 10.8229L17.409 10.827L17.4045 10.8394L17.4 10.8229ZM17.3753 10.8402V10.8171H17.4L17.3963 10.8386H17.3753V10.8402ZM17.3235 10.8938H17.3085V10.8699V10.8658H17.328V10.8889H17.307V10.9087L17.3235 10.8938ZM17.3753 10.9483V10.9722H17.3528V10.968V10.9441H17.3678V10.9639H17.3723H17.3888L17.3753 10.9483ZM17.427 10.8938H17.4413V10.9177V10.9219H17.4195V10.8996H17.4353H17.4V10.8773L17.427 10.8938ZM17.4045 10.8394L17.3918 10.8279L17.4 10.8229H17.4045V10.8279V10.8567H17.3903V10.832L17.4045 10.8394ZM17.3918 10.8279V10.8204H17.397L17.3918 10.8279ZM17.3813 10.8996L17.3685 10.8881L17.3918 10.8279L17.4045 10.8394L17.3813 10.8996Z" fill="#1F1A17"/>
<path d="M15.5999 16.4641L16.3116 14.2421C16.4116 14.1002 16.5408 14.1362 16.6993 14.3502" stroke="#0A0B0C" stroke-width="0.09" stroke-miterlimit="10"/>
<path d="M15.7417 18.8785L16.4534 16.6566C16.5533 16.5148 16.6826 16.5508 16.8411 16.7646" stroke="#1F1A17" stroke-width="0.09" stroke-miterlimit="10"/>
<path d="M15.9054 20.9772L16.6171 18.7551C16.6515 18.7146 16.6934 18.6828 16.7398 18.6617C16.7863 18.6406 16.8363 18.6308 16.8864 18.633C16.9366 18.6351 16.9857 18.6491 17.0306 18.674C17.0755 18.699 17.115 18.7343 17.1465 18.7775" stroke="#1F1A17" stroke-width="0.09" stroke-miterlimit="10"/>
<path d="M16.854 23.3599C17.091 22.6194 17.3282 21.8784 17.5657 21.1369C17.6655 20.9947 17.7952 21.0313 17.9535 21.245" stroke="#1F1A17" stroke-width="0.09" stroke-miterlimit="10"/>
<path d="M20.5499 22.2162C20.3129 21.8151 20.0757 21.4144 19.8382 21.0139C19.7384 20.9365 19.6087 20.9565 19.4504 21.0721" stroke="#1F1A17" stroke-width="0.09" stroke-miterlimit="10"/>
<path d="M18.9674 20.0435C18.8594 19.6431 18.7509 19.2425 18.642 18.8416C18.5962 18.7651 18.537 18.7842 18.4642 18.8999" stroke="#1F1A17" stroke-width="0.09" stroke-miterlimit="10"/>
<path d="M18.7387 18.2847C18.63 17.8064 18.5002 17.2033 18.3915 16.7276C18.346 16.6361 18.2867 16.6593 18.2137 16.7974" stroke="#1F1A17" stroke-width="0.09" stroke-miterlimit="10"/>
<path d="M18.7057 15.8827C18.5752 15.3356 18.3742 14.5523 18.243 14.006C18.1875 13.9012 18.1159 13.9289 18.0284 14.0891" stroke="#0A0B0C" stroke-width="0.09" stroke-miterlimit="10"/>
<path d="M27.774 15.5967C28.11 15.4512 28.5885 15.4637 28.7302 15.787C28.9192 16.2168 29.6925 17.8445 29.0647 17.1487C28.722 16.7688 28.0822 16.7563 27.7042 16.4995L27.774 15.5967ZM27.225 14.7271L27.2835 16.1844C26.9407 15.9782 26.412 15.7297 26.412 16.4105C26.412 17.4546 25.2397 17.709 26.55 17.2003L27.3135 16.8852C27.3195 17.0215 27.3202 17.1587 27.3135 17.2967C26.7952 17.1213 26.4315 17.1504 26.4315 17.9617C26.4315 18.1654 26.34 18.3949 26.2935 18.5728C26.1787 19.0059 25.65 19.1846 26.5005 18.9552C27.051 18.8113 27.0547 18.68 27.1605 18.4464C27.0348 18.9905 26.8285 19.5077 26.55 19.9768C26.475 20.1032 26.4 20.2345 26.325 20.3684C26.0422 20.3277 25.725 20.577 25.5555 20.8605C25.3657 21.0642 25.3305 21.351 25.2352 21.76C25.2323 21.8201 25.2323 21.8803 25.2352 21.9404C25.2082 21.9662 25.1797 21.9911 25.152 22.0144C23.844 22.5747 22.461 23.5598 21.3368 24.6638C21.2688 25.0966 21.4145 25.2241 21.774 25.0462C22.8227 23.9615 24.0106 23.0549 25.299 22.3561C25.3716 22.5793 25.4635 22.7942 25.5735 22.9978C25.746 22.6653 25.8292 22.2388 26.187 22.1116C26.3122 22.1041 26.4333 22.059 26.5372 21.9811C26.5798 22.0255 26.6271 22.0637 26.6782 22.095C26.9512 22.3818 26.859 22.8083 26.8867 23.189C27.1762 22.9513 27.48 22.7576 27.6727 22.2338L27.675 22.1964C28.05 22.4625 28.3717 22.4575 28.7047 22.4916C28.5495 22.1507 28.464 22.0526 28.563 21.6511C28.6665 21.4508 28.4955 20.986 28.4092 20.7608C28.2697 20.3933 27.6052 20.0458 27.2505 20.2437L27.237 20.2545C26.532 20.7275 27.4492 19.7856 27.5152 18.9344L27.5227 18.8313C27.6922 18.7831 27.8497 18.8088 28.1812 19.291C28.3597 19.5504 28.6642 20.1323 28.3425 20.4374C28.3425 20.3609 28.8015 20.0799 28.8247 19.8006L28.8937 18.9859C28.941 18.4273 28.3882 17.8645 27.8827 17.8645C27.7764 17.8579 27.6717 17.8959 27.5895 17.9709L27.6 17.8736C27.768 17.6808 27.7185 17.6982 27.621 17.5985L27.7057 16.5003L27.7755 15.5975L27.8167 15.0605C27.8362 14.8892 27.8385 14.3913 27.7567 14.146C27.8994 14.292 28.0876 14.371 28.2817 14.3663C28.47 14.4096 28.6402 14.3181 28.9005 14.215C29.2192 14.008 29.31 13.747 29.4315 13.4926C29.1817 13.5117 28.9147 13.629 28.698 13.4436C28.6506 13.3758 28.5899 13.3209 28.5205 13.283C28.4511 13.2451 28.3748 13.2253 28.2975 13.2249C28.0357 13.2249 27.7042 13.4951 27.726 13.8069C27.9015 13.7944 28.5555 13.8393 28.7355 13.7578C28.3177 13.8983 27.6637 13.9241 27.666 13.9432C27.6592 13.9307 27.624 12.8858 27.5985 12.6962C27.5482 12.3263 27.489 12.6962 27.4297 12.6846C27.3705 12.6729 27.3652 13.8418 27.3142 13.8434C26.703 13.8343 26.2867 14.5675 26.5522 15.2874C26.5672 15.334 26.9197 15.0513 27.225 14.7271ZM27.6802 14.0172C27.6814 14.0215 27.6829 14.0256 27.6847 14.0296H27.6795C27.6795 14.0296 27.6817 14.0205 27.6817 14.0172H27.6802Z" fill="#00923F"/>
<path d="M27.774 15.5967C28.11 15.4512 28.5885 15.4637 28.7302 15.787C28.9192 16.2168 29.6925 17.8445 29.0647 17.1487C28.722 16.7688 28.0822 16.7563 27.7042 16.4995L27.774 15.5967ZM27.225 14.7271L27.2835 16.1844C26.9407 15.9782 26.412 15.7297 26.412 16.4105C26.412 17.4546 25.2397 17.709 26.55 17.2003L27.3135 16.8852C27.3195 17.0215 27.3202 17.1587 27.3135 17.2967C26.7952 17.1213 26.4315 17.1504 26.4315 17.9617C26.4315 18.1654 26.34 18.3949 26.2935 18.5728C26.1787 19.0059 25.65 19.1846 26.5005 18.9552C27.051 18.8113 27.0547 18.68 27.1605 18.4464C27.0348 18.9905 26.8285 19.5077 26.55 19.9768C26.475 20.1032 26.4 20.2345 26.325 20.3684C26.0422 20.3277 25.725 20.577 25.5555 20.8605C25.3657 21.0642 25.3305 21.351 25.2352 21.76C25.2323 21.8201 25.2323 21.8803 25.2352 21.9404C25.2082 21.9662 25.1797 21.9911 25.152 22.0144C23.844 22.5747 22.461 23.5598 21.3368 24.6638C21.2688 25.0966 21.4145 25.2241 21.774 25.0462C22.8227 23.9615 24.0106 23.0549 25.299 22.3561C25.3716 22.5793 25.4635 22.7942 25.5735 22.9978C25.746 22.6653 25.8292 22.2388 26.187 22.1116C26.3122 22.1041 26.4333 22.059 26.5372 21.9811C26.5798 22.0255 26.6271 22.0637 26.6782 22.095C26.9512 22.3818 26.859 22.8083 26.8867 23.189C27.1762 22.9513 27.48 22.7576 27.6727 22.2338L27.675 22.1964C28.05 22.4625 28.3717 22.4575 28.7047 22.4916C28.5495 22.1507 28.464 22.0526 28.563 21.6511C28.6665 21.4508 28.4955 20.986 28.4092 20.7608C28.2697 20.3933 27.6052 20.0458 27.2505 20.2437L27.237 20.2545C26.532 20.7275 27.4492 19.7856 27.5152 18.9344L27.5227 18.8313C27.6922 18.7831 27.8497 18.8088 28.1812 19.291C28.3597 19.5504 28.6642 20.1323 28.3425 20.4374C28.3425 20.3609 28.8015 20.0799 28.8247 19.8006L28.8937 18.9859C28.941 18.4273 28.3882 17.8645 27.8827 17.8645C27.7764 17.8579 27.6717 17.8959 27.5895 17.9709L27.6 17.8736C27.768 17.6808 27.7185 17.6982 27.621 17.5985L27.7057 16.5003L27.7755 15.5975L27.8167 15.0605C27.8362 14.8892 27.8385 14.3913 27.7567 14.146C27.8994 14.292 28.0876 14.371 28.2817 14.3663C28.47 14.4096 28.6402 14.3181 28.9005 14.215C29.2192 14.008 29.31 13.747 29.4315 13.4926C29.1817 13.5117 28.9147 13.629 28.698 13.4436C28.6506 13.3758 28.5899 13.3209 28.5205 13.283C28.4511 13.2451 28.3748 13.2253 28.2975 13.2249C28.0357 13.2249 27.7042 13.4951 27.726 13.8069C27.9015 13.7944 28.5555 13.8393 28.7355 13.7578C28.3177 13.8983 27.6637 13.9241 27.666 13.9432C27.6592 13.9307 27.624 12.8858 27.5985 12.6962C27.5482 12.3263 27.489 12.6962 27.4297 12.6846C27.3705 12.6729 27.3652 13.8418 27.3142 13.8434C26.703 13.8343 26.2867 14.5675 26.5522 15.2874C26.5672 15.334 26.9197 15.0513 27.225 14.7271ZM27.6802 14.0172C27.6814 14.0215 27.6829 14.0256 27.6847 14.0296H27.6795C27.6795 14.0296 27.6817 14.0205 27.6817 14.0172H27.6802Z" stroke="#1F1A17" stroke-width="0.09" stroke-miterlimit="10"/>
<path d="M28.296 11.9471C28.296 11.8223 28.146 11.72 27.9577 11.72C27.86 11.7166 27.7641 11.7497 27.6855 11.814L27.651 11.8082C27.6839 11.7897 27.7117 11.7619 27.7318 11.7275C27.7518 11.6932 27.7633 11.6536 27.765 11.6128C27.765 11.4805 27.6397 11.3724 27.4875 11.3724C27.3352 11.3724 27.2107 11.4797 27.2092 11.6119C27.1629 11.5774 27.1083 11.5592 27.0525 11.5595C26.9805 11.558 26.911 11.5881 26.859 11.6432C26.807 11.6984 26.7768 11.7742 26.775 11.8539C26.7754 11.8988 26.7852 11.9429 26.8036 11.9828C26.8219 12.0228 26.8483 12.0575 26.8808 12.0843C26.7488 12.12 26.6558 12.214 26.6558 12.3221C26.6558 12.4618 26.8133 12.5766 27.006 12.5766C27.0614 12.5769 27.1164 12.5667 27.1687 12.5466C27.1649 12.5652 27.1628 12.5842 27.1627 12.6032C27.1627 12.7695 27.3127 12.8976 27.489 12.8976C27.6652 12.8976 27.8145 12.7654 27.8145 12.6032C27.8149 12.5749 27.8108 12.5468 27.8025 12.52C27.8686 12.5751 27.9493 12.6043 28.032 12.6032C28.2045 12.6032 28.3455 12.4893 28.3455 12.3487C28.3412 12.2963 28.3226 12.2465 28.2922 12.2061C28.2618 12.1657 28.221 12.1365 28.1752 12.1225C28.2082 12.1086 28.2371 12.0849 28.2587 12.0539C28.2802 12.023 28.2937 11.986 28.2975 11.9471H28.296Z" fill="white"/>
<path d="M28.296 11.9471C28.296 11.8223 28.146 11.72 27.9577 11.72C27.86 11.7166 27.7641 11.7497 27.6855 11.814L27.651 11.8082C27.6839 11.7897 27.7117 11.7619 27.7318 11.7275C27.7518 11.6932 27.7633 11.6536 27.765 11.6128C27.765 11.4805 27.6397 11.3724 27.4875 11.3724C27.3352 11.3724 27.2107 11.4797 27.2092 11.6119C27.1629 11.5774 27.1083 11.5592 27.0525 11.5595C26.9805 11.558 26.911 11.5881 26.859 11.6432C26.807 11.6984 26.7768 11.7742 26.775 11.8539C26.7754 11.8988 26.7852 11.9429 26.8036 11.9828C26.8219 12.0228 26.8483 12.0575 26.8808 12.0843C26.7488 12.12 26.6558 12.214 26.6558 12.3221C26.6558 12.4618 26.8133 12.5766 27.006 12.5766C27.0614 12.5769 27.1164 12.5667 27.1687 12.5466C27.1649 12.5652 27.1628 12.5842 27.1627 12.6032C27.1627 12.7695 27.3127 12.8976 27.489 12.8976C27.6652 12.8976 27.8145 12.7654 27.8145 12.6032C27.8149 12.5749 27.8108 12.5468 27.8025 12.52C27.8686 12.5751 27.9493 12.6043 28.032 12.6032C28.2045 12.6032 28.3455 12.4893 28.3455 12.3487C28.3412 12.2963 28.3226 12.2465 28.2922 12.2061C28.2618 12.1657 28.221 12.1365 28.1752 12.1225C28.2082 12.1086 28.2371 12.0849 28.2587 12.0539C28.2802 12.023 28.2937 11.986 28.2975 11.9471H28.296Z" stroke="#1F1A17" stroke-width="0.09" stroke-miterlimit="10"/>
<path d="M27.8129 13.2583C27.8129 13.1335 27.6629 13.0313 27.4746 13.0313C27.3772 13.0279 27.2815 13.061 27.2031 13.1252L27.1679 13.1194C27.2007 13.1009 27.2286 13.0731 27.2487 13.0388C27.2687 13.0044 27.2801 12.9648 27.2819 12.924C27.2819 12.7918 27.1574 12.6837 27.0044 12.6837C26.8513 12.6837 26.7276 12.791 26.7268 12.9232C26.6804 12.8889 26.6259 12.8707 26.5701 12.8708C26.4981 12.8692 26.4284 12.8993 26.3763 12.9544C26.3242 13.0096 26.2938 13.0853 26.2918 13.1651C26.2922 13.2101 26.3021 13.2543 26.3206 13.2942C26.3391 13.3342 26.3657 13.3689 26.3983 13.3954C26.2663 13.432 26.1733 13.5252 26.1733 13.6332C26.1733 13.7729 26.3301 13.8877 26.5228 13.8877C26.5785 13.888 26.6338 13.8778 26.6863 13.8577C26.6818 13.8762 26.6796 13.8952 26.6796 13.9143C26.6796 14.0764 26.8296 14.2086 27.0059 14.2086C27.1821 14.2086 27.3314 14.0764 27.3314 13.9143C27.3318 13.886 27.3277 13.8579 27.3194 13.8311C27.3855 13.8861 27.4662 13.9154 27.5489 13.9143C27.7214 13.9143 27.8624 13.8004 27.8624 13.6599C27.8581 13.6074 27.8395 13.5577 27.8091 13.5173C27.7787 13.4769 27.7379 13.4477 27.6921 13.4337C27.7249 13.4197 27.7536 13.3959 27.7749 13.3649C27.7962 13.334 27.8094 13.297 27.8129 13.2583Z" fill="white"/>
<path d="M27.8129 13.2583C27.8129 13.1335 27.6629 13.0313 27.4746 13.0313C27.3772 13.0279 27.2815 13.061 27.2031 13.1252L27.1679 13.1194C27.2007 13.1009 27.2286 13.0731 27.2487 13.0388C27.2687 13.0044 27.2801 12.9648 27.2819 12.924C27.2819 12.7918 27.1574 12.6837 27.0044 12.6837C26.8513 12.6837 26.7276 12.791 26.7268 12.9232C26.6804 12.8889 26.6259 12.8707 26.5701 12.8708C26.4981 12.8692 26.4284 12.8993 26.3763 12.9544C26.3242 13.0096 26.2938 13.0853 26.2918 13.1651C26.2922 13.2101 26.3021 13.2543 26.3206 13.2942C26.3391 13.3342 26.3657 13.3689 26.3983 13.3954C26.2663 13.432 26.1733 13.5252 26.1733 13.6332C26.1733 13.7729 26.3301 13.8877 26.5228 13.8877C26.5785 13.888 26.6338 13.8778 26.6863 13.8577C26.6818 13.8762 26.6796 13.8952 26.6796 13.9143C26.6796 14.0764 26.8296 14.2086 27.0059 14.2086C27.1821 14.2086 27.3314 14.0764 27.3314 13.9143C27.3318 13.886 27.3277 13.8579 27.3194 13.8311C27.3855 13.8861 27.4662 13.9154 27.5489 13.9143C27.7214 13.9143 27.8624 13.8004 27.8624 13.6599C27.8581 13.6074 27.8395 13.5577 27.8091 13.5173C27.7787 13.4769 27.7379 13.4477 27.6921 13.4337C27.7249 13.4197 27.7536 13.3959 27.7749 13.3649C27.7962 13.334 27.8094 13.297 27.8129 13.2583Z" stroke="#1F1A17" stroke-width="0.09" stroke-miterlimit="10"/>
<path d="M29.0686 17.1648C29.0686 17.0401 28.9186 16.9378 28.7303 16.9378C28.6327 16.9341 28.5368 16.9669 28.4581 17.0309L28.4228 17.0251C28.4559 17.0071 28.4841 16.9795 28.5042 16.9452C28.5244 16.911 28.5359 16.8714 28.5376 16.8305C28.5376 16.6983 28.4123 16.5894 28.26 16.5894C28.1078 16.5894 27.9833 16.6975 27.9818 16.8288C27.9352 16.795 27.8807 16.777 27.825 16.7773C27.753 16.7757 27.6835 16.8058 27.6314 16.861C27.5794 16.9161 27.5493 16.9919 27.5475 17.0717C27.5479 17.1165 27.5577 17.1606 27.576 17.2005C27.5944 17.2405 27.6208 17.2752 27.6532 17.302C27.5212 17.3377 27.4282 17.4317 27.4282 17.5398C27.4282 17.6795 27.5857 17.7943 27.7785 17.7943C27.8339 17.7945 27.8889 17.7844 27.9413 17.7643C27.9374 17.7829 27.9354 17.8018 27.9353 17.8209C27.9353 17.983 28.0815 18.1152 28.2608 18.1152C28.4401 18.1152 28.5871 17.983 28.5871 17.8209C28.5875 17.7926 28.5834 17.7644 28.5751 17.7377C28.6412 17.7927 28.7219 17.822 28.8046 17.8209C28.9771 17.8209 29.1181 17.7069 29.1181 17.5664C29.1139 17.514 29.0953 17.4642 29.0649 17.4238C29.0344 17.3834 28.9936 17.3542 28.9478 17.3402C28.9805 17.326 29.009 17.3021 29.0303 17.2712C29.0516 17.2403 29.0649 17.2035 29.0686 17.1648Z" fill="white"/>
<path d="M29.0686 17.1648C29.0686 17.0401 28.9186 16.9378 28.7303 16.9378C28.6327 16.9341 28.5368 16.9669 28.4581 17.0309L28.4228 17.0251C28.4559 17.0071 28.4841 16.9795 28.5042 16.9452C28.5244 16.911 28.5359 16.8714 28.5376 16.8305C28.5376 16.6983 28.4123 16.5894 28.26 16.5894C28.1078 16.5894 27.9833 16.6975 27.9818 16.8288C27.9352 16.795 27.8807 16.777 27.825 16.7773C27.753 16.7757 27.6835 16.8058 27.6314 16.861C27.5794 16.9161 27.5493 16.9919 27.5475 17.0717C27.5479 17.1165 27.5577 17.1606 27.576 17.2005C27.5944 17.2405 27.6208 17.2752 27.6532 17.302C27.5212 17.3377 27.4282 17.4317 27.4282 17.5398C27.4282 17.6795 27.5857 17.7943 27.7785 17.7943C27.8339 17.7945 27.8889 17.7844 27.9413 17.7643C27.9374 17.7829 27.9354 17.8018 27.9353 17.8209C27.9353 17.983 28.0815 18.1152 28.2608 18.1152C28.4401 18.1152 28.5871 17.983 28.5871 17.8209C28.5875 17.7926 28.5834 17.7644 28.5751 17.7377C28.6412 17.7927 28.7219 17.822 28.8046 17.8209C28.9771 17.8209 29.1181 17.7069 29.1181 17.5664C29.1139 17.514 29.0953 17.4642 29.0649 17.4238C29.0344 17.3834 28.9936 17.3542 28.9478 17.3402C28.9805 17.326 29.009 17.3021 29.0303 17.2712C29.0516 17.2403 29.0649 17.2035 29.0686 17.1648V17.1648Z" stroke="#1F1A17" stroke-width="0.09" stroke-miterlimit="10"/>
<path d="M27.6954 19.4134C27.6954 19.2954 27.5521 19.1989 27.3766 19.1989C27.2846 19.1956 27.1943 19.2266 27.1201 19.2871L27.0871 19.2812C27.1182 19.264 27.1445 19.2379 27.1634 19.2056C27.1822 19.1733 27.1929 19.1359 27.1944 19.0975C27.1944 18.9728 27.0766 18.8705 26.9326 18.8705C26.7886 18.8705 26.6716 18.9719 26.6708 19.0966C26.6263 19.0641 26.5741 19.047 26.5208 19.0476C26.4529 19.0462 26.3874 19.0747 26.3383 19.1267C26.2893 19.1787 26.2608 19.2501 26.259 19.3253C26.2596 19.3675 26.2689 19.4091 26.2861 19.4467C26.3034 19.4843 26.3283 19.517 26.3588 19.5423C26.2343 19.5764 26.145 19.6646 26.145 19.766C26.145 19.8982 26.295 20.0063 26.475 20.0063C26.5274 20.0063 26.5793 19.9968 26.6288 19.978C26.6252 19.9955 26.6234 20.0133 26.6236 20.0312C26.6236 20.1842 26.7616 20.309 26.9303 20.309C27.0991 20.309 27.2379 20.1842 27.2379 20.0312C27.2381 20.0043 27.2338 19.9775 27.2251 19.9523C27.2879 20.0033 27.364 20.0302 27.4419 20.0287C27.6046 20.0287 27.7382 19.9215 27.7382 19.7893C27.7335 19.7399 27.7157 19.6932 27.6869 19.6551C27.6582 19.6171 27.6199 19.5894 27.5769 19.5756C27.6083 19.5634 27.636 19.5418 27.6569 19.5131C27.6778 19.4845 27.6912 19.45 27.6954 19.4134Z" fill="white"/>
<path d="M27.6954 19.4134C27.6954 19.2954 27.5521 19.1989 27.3766 19.1989C27.2846 19.1956 27.1943 19.2266 27.1201 19.2871L27.0871 19.2812C27.1182 19.264 27.1445 19.2379 27.1634 19.2056C27.1822 19.1733 27.1929 19.1359 27.1944 19.0975C27.1944 18.9728 27.0766 18.8705 26.9326 18.8705C26.7886 18.8705 26.6716 18.9719 26.6708 19.0966C26.6263 19.0641 26.5741 19.047 26.5208 19.0476C26.4529 19.0462 26.3874 19.0747 26.3383 19.1267C26.2893 19.1787 26.2608 19.2501 26.259 19.3253C26.2596 19.3675 26.2689 19.4091 26.2861 19.4467C26.3034 19.4843 26.3283 19.517 26.3588 19.5423C26.2343 19.5764 26.145 19.6646 26.145 19.766C26.145 19.8982 26.295 20.0063 26.475 20.0063C26.5274 20.0063 26.5793 19.9968 26.6288 19.978C26.6252 19.9955 26.6234 20.0133 26.6236 20.0312C26.6236 20.1842 26.7616 20.309 26.9303 20.309C27.0991 20.309 27.2379 20.1842 27.2379 20.0312C27.2381 20.0043 27.2338 19.9775 27.2251 19.9523C27.2879 20.0033 27.364 20.0302 27.4419 20.0287C27.6046 20.0287 27.7382 19.9215 27.7382 19.7893C27.7335 19.7399 27.7157 19.6932 27.6869 19.6551C27.6582 19.6171 27.6199 19.5894 27.5769 19.5756C27.6083 19.5634 27.636 19.5418 27.6569 19.5131C27.6778 19.4845 27.6912 19.45 27.6954 19.4134V19.4134Z" stroke="#1F1A17" stroke-width="0.09" stroke-miterlimit="10"/>
<path d="M28.0566 14.7977C28.6236 14.7146 28.7781 15.0412 29.0316 15.2382C28.6746 15.421 28.3664 15.3545 28.0529 15.618L28.0416 15.6064C27.9944 15.9505 27.8429 16.2946 27.6756 16.6387C27.4738 16.2572 27.3448 15.8748 27.3756 15.4925L27.3613 15.5083C27.0471 15.2448 26.7516 15.5715 26.3818 15.2382C26.6278 15.0479 26.7703 14.5849 27.3756 14.875C27.3471 14.4951 27.4753 14.1153 27.6756 13.7355C27.8444 14.0837 27.9974 14.432 28.0439 14.7794C28.0844 14.722 27.9749 14.9697 28.0566 14.7977Z" fill="#F8C300"/>
<path d="M28.0566 14.7977C28.6236 14.7146 28.7781 15.0412 29.0316 15.2382C28.6746 15.421 28.3664 15.3545 28.0529 15.618L28.0416 15.6064C27.9944 15.9505 27.8429 16.2946 27.6756 16.6387C27.4738 16.2572 27.3448 15.8748 27.3756 15.4925L27.3613 15.5083C27.0471 15.2448 26.7516 15.5715 26.3818 15.2382C26.6278 15.0479 26.7703 14.5849 27.3756 14.875C27.3471 14.4951 27.4753 14.1153 27.6756 13.7355C27.8444 14.0837 27.9974 14.432 28.0439 14.7794C28.0844 14.722 27.9749 14.9697 28.0566 14.7977Z" stroke="#1F1A17" stroke-width="0.09" stroke-miterlimit="10"/>
<path d="M27.675 13.7665C27.7268 14.1391 27.7657 14.515 27.714 14.8843" stroke="#1F1A17" stroke-width="0.09" stroke-miterlimit="10"/>
<path d="M28.9634 15.2369C28.6349 15.2007 28.2681 15.0938 27.9441 15.1711" stroke="#1F1A17" stroke-width="0.09" stroke-miterlimit="10"/>
<path d="M27.5924 15.1744C27.2011 15.1377 26.8072 15.1587 26.4209 15.2366" stroke="#1F1A17" stroke-width="0.09" stroke-miterlimit="10"/>
<path d="M27.7319 15.4215C27.7829 15.794 27.7057 16.2088 27.657 16.5854" stroke="#1F1A17" stroke-width="0.09" stroke-miterlimit="10"/>
<path d="M26.1345 21.1768C25.752 21.4003 25.6928 21.559 25.5923 21.9935" stroke="#1F1A17" stroke-width="0.09" stroke-miterlimit="10"/>
<path d="M27.6488 21.9471C27.6723 21.7811 27.6571 21.6111 27.6046 21.4534C27.5521 21.2957 27.4641 21.1556 27.3489 21.0464" stroke="#1F1A17" stroke-width="0.09" stroke-miterlimit="10"/>
<path d="M26.304 21.0321C26.1998 21.3964 26.229 21.4047 26.3715 21.7224" stroke="#1F1A17" stroke-width="0.09" stroke-miterlimit="10"/>
<path d="M27.2025 22.2324C27.2738 21.8998 26.8837 21.0002 26.6107 20.7758" stroke="#1F1A17" stroke-width="0.09" stroke-miterlimit="10"/>
<path d="M27.6533 20.5841C28.0838 20.7604 27.9046 21.6653 28.1783 21.9431" stroke="#1F1A17" stroke-width="0.09" stroke-miterlimit="10"/>
<path d="M27.3338 17.7946C26.8125 17.494 26.7968 18.3467 26.4938 18.7039" stroke="#1F1A17" stroke-width="0.09" stroke-miterlimit="10"/>
<path d="M27.1364 16.5181C26.664 16.0842 26.817 16.8823 26.4653 17.0519" stroke="#1F1A17" stroke-width="0.09" stroke-miterlimit="10"/>
<path d="M28.59 19.3152C28.4475 18.9393 28.14 18.2434 27.8063 18.3723" stroke="#1F1A17" stroke-width="0.09" stroke-miterlimit="10"/>
<path d="M27.2557 14.2051C27.0532 14.3198 26.7997 14.4544 26.7307 14.6987" stroke="#1F1A17" stroke-width="0.09" stroke-miterlimit="10"/>
<path d="M28.8937 16.7173C28.3732 16.51 28.4977 15.988 28.0905 16.0147" stroke="#1F1A17" stroke-width="0.09" stroke-miterlimit="10"/>
<path d="M28.8248 13.8839C28.6395 13.735 28.329 13.6019 28.0852 13.7023" stroke="#1F1A17" stroke-width="0.09" stroke-miterlimit="10"/>
</svg>
