<svg width="36" height="27" viewBox="0 0 36 27" fill="none" xmlns="http://www.w3.org/2000/svg">
<path d="M35.5862 0.00012207H-0.00012207V26.2963H35.5862V0.00012207Z" fill="white"/>
<path d="M23.9614 6.63647H11.6249V19.6593H23.9614V6.63647Z" fill="#00923F"/>
<path d="M16.9153 12.2218V9.59227L17.5321 8.94115V7.73909H16.9153L17.7931 6.8125L18.6709 7.73909H18.0541V8.94115L18.6709 9.59227V12.2218H21.1619L21.7787 12.8729H22.9175V12.2218L23.7953 13.1484L22.9175 14.075V13.4238H21.7787L21.1619 14.075H18.6709V16.7045L18.0541 17.3556V18.5577H18.6709L17.7931 19.4843L16.9153 18.5577H17.5321V17.3556L16.9153 16.7045V14.075H14.4243L13.8074 13.4238H12.6687V14.075L11.7909 13.1484L12.6687 12.2218V12.8729H13.8074L14.4243 12.2218H16.9153Z" fill="#F8C300"/>
<path d="M16.0376 13.1479L17.7932 11.2946L19.5488 13.1479L17.7932 15.0012L16.0376 13.1479Z" fill="#00923F"/>
</svg>
