<svg width="244" height="206" viewBox="0 0 244 206" fill="none" xmlns="http://www.w3.org/2000/svg">
<path d="M2.03931 111.321C2.2524 111.403 11.4891 110.783 11.4891 110.783C11.4891 110.783 17.9629 110.572 18.2421 110.588C18.5214 110.604 23.1654 110.197 23.3859 110.27C23.6063 110.344 30.9545 110.792 30.9545 110.792C30.9545 110.792 40.9481 110.58 41.3155 110.792C41.6829 111.003 49.3398 110.27 49.3398 110.27L65.1458 109.415L77.7112 110.01C77.7112 110.01 89.6668 110.384 89.9019 110.376C90.137 110.368 97.015 109.309 97.2942 109.415C97.5735 109.521 103.959 109.879 104.121 109.92C104.282 109.961 113.416 109.879 113.534 109.879L129.494 110.596C129.494 110.596 146.535 109.163 146.733 109.407C146.931 109.651 152.612 109.7 152.612 109.7L167.021 109.383L168.932 108.951C168.932 108.951 173.458 109.57 173.576 109.57C173.694 109.57 175.002 109.399 175.163 109.35C175.325 109.301 176.875 108.47 176.875 108.47C176.702 107.821 176.567 107.16 176.471 106.491C176.515 106.271 176.875 101.164 176.875 101.164L177.787 95.6585C177.787 95.6585 179.175 88.3281 179.212 87.9127C179.249 87.4973 180.741 74.3597 180.851 74.2294C180.961 74.0991 181.321 70.4013 181.321 70.4013C181.27 69.808 181.192 69.2181 181.086 68.6339C181.005 68.5036 181.086 67.2737 180.851 67.1352C180.616 66.9968 180.116 66.4347 179.969 66.4836C179.822 66.5325 176.236 66.4836 176.236 66.4836C176.236 66.4836 172.782 66.3533 172.503 66.4836C172.224 66.6139 142.684 67.013 142.684 67.013L143.316 64.9035L146.255 52.2464L148.078 44.745L148.871 39.5812L148.688 38.1477C148.688 38.1477 149.827 37.3902 150.025 37.4554C150.847 37.4471 151.664 37.3072 152.45 37.04C152.582 36.8445 153.721 34.9223 153.721 34.9223L157.138 26.3865L158.211 20.4489L158.946 17.1014L159.739 12.9149L160.474 5.69043L181.365 52.2464L188.552 65.5958C188.552 65.5958 197.884 84.6222 197.884 84.7525C197.884 84.8828 203.682 97.3852 203.763 97.5155C203.843 97.6458 205.864 104.08 205.967 104.251C206.07 104.422 208.076 109.888 208.171 110.197C208.267 110.507 210.163 114.864 210.317 114.954C210.471 115.043 217.702 130.486 217.783 130.616C217.864 130.747 220.685 136.432 220.685 136.432C220.685 136.432 223.742 145.896 223.742 146.067C223.742 146.238 229.658 163.937 229.702 164.075C229.746 164.214 233.229 175.209 233.229 175.209C233.229 175.209 236.969 187.492 237.006 187.663C237.043 187.834 240.577 199.025 240.68 199.196C240.783 199.367 241.959 203.048 241.716 203.203C240.831 203.326 239.94 203.383 239.049 203.374L235 202.983L221.538 197.217L214.513 193.918L211.515 191.361L208.377 189.161L204.924 188.347L196.701 186.278L189.433 184.478L183.695 183.036L180.234 181L164.898 175.071L136.144 163.888C136.144 163.888 85.9853 144.34 86.1029 144.438C86.2205 144.536 39.8091 126.348 39.8826 126.479C39.9561 126.609 2.23771 111.948 2.23771 111.948L2.03931 111.321Z" fill="white"/>
<path d="M28.6472 68.0472L31.3954 53.4842C31.3954 53.4842 33.4088 40.0533 33.35 40.0533C33.2913 40.0533 31.2338 39.7113 31.1456 39.7357C31.0574 39.7601 29.5731 39.361 29.5731 39.361C29.5731 39.361 29.8596 37.5366 29.9184 37.4388C29.9772 37.3411 30.9913 34.2379 30.9913 34.2379L31.3513 32.5519L32.9092 24.3012L34.6801 18.8849L36.2306 12.4505C36.2306 12.4505 36.7964 9.9093 36.7964 9.81156C36.7964 9.71382 37.3328 7.96268 37.3328 7.96268L46.5401 6.33371L54.3733 5.44592C54.3733 5.44592 61.7215 4.51741 61.8464 4.51741C61.9713 4.51741 71.3991 3.44229 71.3991 3.44229C71.3991 3.44229 78.6371 2.96989 78.7473 3.00247C78.8575 3.03505 86.9479 2.63594 86.9479 2.63594C86.9479 2.63594 100.851 1.21875 101.027 1.21875C101.203 1.21875 107.045 1.21875 107.045 1.21875H112.674L119.581 1.29205L133.543 2.03323L141.766 2.66853L155.882 3.60518L159.188 3.36083L160.658 6.17895L159.923 11.0659L158.858 17.4921L158.233 20.4406L157.851 22.5582L157.359 25.2868L156.036 29.1881L155.051 32.3646C155.051 32.3646 154.133 34.5393 154.066 34.6207C154 34.7022 153.332 35.5492 153.214 35.8099C152.844 36.1877 152.443 36.5258 152.016 36.8198C151.928 36.885 150.723 37.0642 150.613 37.2515C150.503 37.4389 149.636 37.5773 149.54 37.7483C149.444 37.9194 149.04 38.3103 148.915 38.5628C148.79 38.8153 148.32 41.4705 148.32 41.4705L148.1 44.7285C147.955 45.3795 147.871 46.0456 147.85 46.7158C147.967 46.8543 147.607 47.7421 147.519 48.1738C147.431 48.6054 147.042 49.6561 147.012 49.8516C146.983 50.0471 143.588 62.924 143.588 62.924L142.368 67.0535L166.367 66.6299C166.367 66.6299 177.213 66.125 177.331 66.2309C178.022 66.3563 178.719 66.4406 179.418 66.4833C179.418 66.4833 180.564 66.3204 180.491 66.5241C180.631 67.2461 180.838 67.9502 181.108 68.6254L181.38 69.3666C181.426 69.9122 181.391 70.4624 181.277 70.9956C181.112 71.6498 181.008 72.3213 180.968 72.9992C180.968 72.9992 179.359 85.078 179.447 85.1513C179.535 85.2246 178.712 90.9423 178.712 90.9423L178.183 93.6219C178.183 93.6219 176.846 98.2319 176.846 98.3622C176.846 98.4926 176.89 101.172 176.89 101.172L176.486 106.499L176.398 108.332L175.604 109.146L171.665 109.325L170.328 109.138C169.756 109.323 169.158 109.386 168.565 109.325C167.971 109.234 167.367 109.253 166.779 109.382H146.748L137.739 109.903L128.561 110.522L122.851 110.27L110.212 109.912L101.6 109.749L96.3683 109.48L91.5111 109.977H76.2857L67.0563 109.537L55.4094 109.61L47.5174 110.311L39.9855 110.628C39.9855 110.628 27.8315 110.783 27.6846 110.832C27.5376 110.881 19.4619 110.547 19.4619 110.547C19.4619 110.547 10.1738 111.101 10.0489 111.133C9.92394 111.166 0.848896 111.467 0.848896 111.467L0.430054 110.311L1.24571 103.412L2.99457 85.9088C2.99457 85.9088 4.19234 75.5567 4.27317 75.4345C4.354 75.3124 18.1833 71.4191 18.1833 71.4191L28.6472 68.0472Z" fill="white"/>
<path d="M242.539 205.899C242.483 205.907 242.426 205.907 242.37 205.899L0.33448 111.63C0.22732 111.591 0.135694 111.512 0.0753481 111.407C0.0150022 111.301 -0.0102925 111.176 0.00381245 111.052L3.46482 75.4014C3.47422 75.288 3.51541 75.1806 3.58262 75.0945C3.64982 75.0083 3.73968 74.9476 3.83958 74.9209L28.3018 67.8104L33.0928 39.963C33.1163 39.8394 33.1772 39.7284 33.2654 39.6484C33.3536 39.5684 33.4638 39.5242 33.5778 39.5232L29.2277 38.8065L36.8625 7.61973C36.8886 7.51608 36.9415 7.42313 37.0146 7.35225C37.0877 7.28137 37.1778 7.23564 37.274 7.22063L47.8554 5.41246C53.2196 4.86676 100.028 0.150879 100.858 0.150879C101.688 0.150879 157.145 2.59433 159.504 2.70022C159.595 2.70495 159.682 2.73606 159.758 2.79041C159.835 2.84475 159.896 2.92041 159.938 3.00973L180.696 49.9405L199.398 82.3816L220.605 133.89L243.009 205.206C243.037 205.289 243.046 205.379 243.035 205.467C243.024 205.554 242.995 205.638 242.948 205.71C242.902 205.782 242.84 205.841 242.769 205.881C242.698 205.921 242.619 205.941 242.539 205.939V205.899ZM1.0399 110.726L241.745 204.433L219.701 134.346L198.545 82.9517L179.822 50.4536L159.166 3.76719C154.669 3.57172 101.666 1.23415 100.858 1.23415C100.05 1.23415 65.9026 4.67943 47.9509 6.48759L37.7149 8.2306L30.1168 39.5069C30.088 39.6232 30.0258 39.7258 29.9396 39.7993C29.8534 39.8728 29.7479 39.9132 29.6392 39.9142L34.0481 40.6309L28.4635 68.633C18.0731 70.1561 18.0363 72.005 18.0363 72.005L4.39804 75.9064L1.0399 110.726Z" fill="black"/>
<path d="M0.723986 111.703C0.658347 111.7 0.593907 111.682 0.534361 111.651C0.474815 111.62 0.421336 111.577 0.376971 111.523C0.332607 111.47 0.298236 111.407 0.275823 111.338C0.253411 111.27 0.243397 111.197 0.246357 111.124C0.284734 109.289 0.494038 107.463 0.870949 105.675L1.09874 104.429C1.65935 100.804 1.95669 97.1357 1.98788 93.4582L2.05401 91.479C2.23962 87.6988 2.74644 83.9464 3.56774 80.2717C3.63558 79.8024 3.67974 79.3292 3.70002 78.8545C3.81759 77.0137 3.94985 75.6698 4.53036 75.0671C4.71406 74.8879 5.00799 74.7821 6.40416 74.4237C6.823 74.3178 7.19777 74.2282 7.35943 74.163C8.45431 73.7558 9.7182 73.2834 11.0335 72.8924C13.0155 72.2823 15.0273 71.7982 17.0591 71.4427C17.3383 70.0173 28.2137 69.1703 28.3239 67.8101C28.4318 67.0547 28.579 66.3068 28.7648 65.5702C29.0764 64.0441 29.29 62.4954 29.4041 60.9358C29.5076 59.8501 29.7246 58.7814 30.0507 57.7512C30.3407 56.8441 30.5403 55.9046 30.6459 54.9494C30.859 52.4 31.2632 50.0625 31.682 47.5131C31.8143 46.6987 31.9466 45.9412 32.0788 45.1348C32.0788 45.0615 32.0788 44.8416 32.1303 44.5484C32.1387 43.4797 32.2974 42.419 32.6006 41.4045C33.7395 39.1891 29.3673 38.5131 29.3673 38.5131C29.5878 37.6986 29.7348 37.2669 29.9846 36.4443C30.7656 34.1812 31.2937 31.8206 31.5571 29.4153C31.7088 27.3752 32.099 25.3656 32.7181 23.437L32.9018 22.8017C33.8718 19.2831 34.7095 16.3428 35.7456 13.2722C36.0836 12.2704 36.0175 12.0179 36.0101 12.0098C35.8837 12.005 35.7614 11.9592 35.6582 11.8782C35.555 11.7971 35.4755 11.6843 35.4296 11.5537C35.29 11.1383 35.4296 10.6333 36.0836 9.47672L36.26 9.14278C37.0756 7.64413 37.5679 6.74006 39.4123 6.64232C40.6248 6.56901 41.852 6.45498 43.0865 6.34095C44.5561 6.21063 46.0257 6.07217 47.4954 6.01516C49.3722 5.8916 51.2372 5.60291 53.0727 5.15181C54.3513 4.88303 55.6813 4.59795 57.026 4.41877C57.8784 4.31288 58.7014 4.27217 59.5024 4.2233C60.8266 4.2056 62.146 4.04189 63.441 3.7346L63.904 3.61243C65.1752 3.27035 66.4832 2.91197 67.7985 2.7002C71.4698 2.21009 75.1727 2.07656 78.8649 2.30111C82.4362 2.518 86.0177 2.40084 89.5713 1.95088C93.3125 1.37297 97.0887 1.11972 100.865 1.19342C102.201 1.1657 103.534 1.04054 104.856 0.818747C105.524 0.721009 106.2 0.631414 106.898 0.549966C109.683 0.354438 112.476 0.354438 115.261 0.549966L116.341 0.598833C125.974 1.02236 135.483 0.908343 143.529 0.745447C145.621 0.632443 147.715 0.9246 149.716 1.6088C151.6 2.23849 153.563 2.52727 155.529 2.46401C156.469 2.46401 157.322 2.39885 158.226 2.33369H158.387C158.475 2.3165 158.558 2.27751 158.63 2.21966C158.892 2.02385 159.203 1.92674 159.519 1.94274C159.903 2.05162 160.307 2.03177 160.68 1.88572C160.809 1.81685 160.953 1.78664 161.096 1.79806C161.239 1.80949 161.377 1.86217 161.496 1.95088C161.782 2.21966 161.768 2.65134 161.709 3.22963C161.656 3.66688 161.637 4.10822 161.65 4.54909C161.67 5.23851 161.565 5.92542 161.341 6.569C160.955 8.13162 160.692 9.72863 160.555 11.3419C160.41 13.1277 160.105 14.893 159.644 16.6116C159.046 18.4222 158.663 20.3114 158.505 22.2315C158.264 24.1706 157.799 26.0675 157.123 27.8759C156.925 28.4868 156.727 29.0895 156.55 29.6678C155.901 31.6506 155.081 33.5598 154.103 35.3692C152.972 37.6253 152.634 37.8126 150.569 37.8126H150.392C150.218 37.9841 150.009 38.1069 149.783 38.171C149.686 38.9168 149.508 39.6469 149.254 40.3457C149.07 40.852 148.928 41.3753 148.827 41.9095C148.702 42.724 148.651 43.4814 148.6 44.2389C148.561 45.5839 148.363 46.9174 148.012 48.2054C147.328 50.429 146.777 52.7829 146.248 55.0471C145.588 58.1409 144.751 61.1851 143.742 64.1612C143.704 64.9476 143.555 65.7225 143.301 66.458C143.417 66.4307 143.536 66.417 143.654 66.4173C144.565 66.4173 145.491 66.344 146.417 66.2951C147.534 66.23 148.622 66.173 149.753 66.1648L171.798 65.953C172.775 65.953 173.422 65.953 173.848 65.953C174.636 65.7471 175.437 65.6083 176.243 65.5377C176.941 65.4341 177.65 65.4839 178.33 65.6843C178.936 65.8719 179.577 65.8719 180.182 65.6843C180.295 65.6481 180.413 65.6403 180.529 65.6614C180.645 65.6825 180.755 65.7321 180.851 65.8064C181.24 66.116 181.284 66.7187 181.336 67.354C181.336 67.4273 181.336 67.5169 181.336 67.6064C181.411 67.6175 181.484 67.6452 181.549 67.6879C182.041 68.0381 182.034 70.4083 181.711 72.4038C181.556 73.3404 181.461 74.3178 181.365 75.2545C181.26 76.5093 181.095 77.7571 180.873 78.993C180.451 81.3393 180.152 83.7107 179.976 86.0953C179.807 87.936 179.631 89.8337 179.344 91.707C179.15 92.7875 178.879 93.8495 178.536 94.8835C178.206 95.8632 177.947 96.871 177.765 97.8971C177.397 100.341 177.213 102.874 177.03 105.325V105.529C177.009 105.961 177.067 106.393 177.199 106.799C177.325 107.142 177.385 107.51 177.378 107.88C177.37 108.249 177.294 108.614 177.155 108.95C177.085 109.19 176.935 109.392 176.736 109.515C176.537 109.637 176.303 109.671 176.082 109.609C176.011 109.59 175.938 109.586 175.866 109.599C175.794 109.612 175.725 109.64 175.663 109.683C175.154 110.018 174.547 110.117 173.973 109.96H173.855C169.682 109.316 169.498 109.357 168.8 109.512C167.169 109.84 165.511 109.974 163.854 109.911L158.321 109.968L145.381 110.09C142.816 110.09 140.237 110.302 137.695 110.473C134.337 110.709 130.876 110.953 127.407 110.831C121.154 110.611 114.063 110.367 107.06 110.456C105.517 110.456 103.966 110.351 102.467 110.22C100.968 110.09 99.3885 109.968 97.8307 109.992C96.361 109.992 94.8326 110.196 93.3262 110.359C91.3208 110.641 89.2998 110.763 87.2786 110.725C79.1442 110.359 76.9911 110.399 74.7132 110.44C73.2409 110.444 71.7693 110.366 70.3043 110.204C68.9301 110.082 67.5046 109.976 66.079 109.976C64.6535 109.976 63.4043 109.976 62.0669 109.976C57.9404 109.871 53.8121 110.059 49.7072 110.538C48.1015 110.734 46.4875 110.835 44.8721 110.839C43.1971 110.842 41.5237 110.953 39.8606 111.173C37.9754 111.413 36.0761 111.487 34.1804 111.393H31.976C30.2197 111.393 28.4929 111.271 26.8322 111.132C24.6831 110.908 22.5228 110.842 20.3658 110.937L17.4706 111.141C14.3329 111.361 11.0923 111.597 7.84441 111.629L1.23102 111.694C1.14902 111.678 1.06803 111.657 0.988523 111.629C0.913437 111.672 0.830358 111.694 0.74603 111.694L0.723986 111.703ZM29.6392 39.9058C31.8437 40.0932 35.5178 37.3972 33.7542 41.9991C33.483 42.8589 33.2741 43.7413 33.1296 44.638C33.1296 44.9801 33.0855 45.2326 33.0708 45.3222C32.9386 46.1367 32.8063 46.9511 32.674 47.7086C32.2552 50.2009 31.8584 52.5385 31.6453 55.039C31.5354 56.0715 31.3235 57.0876 31.0133 58.0688C30.7071 59.0192 30.5024 60.006 30.4034 61.0091C30.2888 62.6181 30.0702 64.2158 29.7494 65.7901C29.6172 66.5313 29.4114 67.2807 29.3012 68.0463C29.0955 69.5449 23.4888 71.2065 19.1386 71.7685C18.9182 71.7685 17.7939 72.4363 17.5734 72.4771C15.4539 72.8287 13.3557 73.3238 11.2907 73.9594C10.1371 74.3015 9.08626 74.6925 7.69009 75.2137C7.50639 75.2789 7.08754 75.3848 6.63195 75.507C6.13548 75.6184 5.64486 75.7597 5.1623 75.9305C4.89042 76.2237 4.77285 77.983 4.70672 78.9278C4.68609 79.4576 4.63455 79.9854 4.55241 80.5079C3.7552 84.12 3.2632 87.8065 3.08277 91.5197L3.01663 93.4826C2.98621 97.2229 2.68395 100.955 2.1128 104.641L1.88501 105.887C1.558 107.427 1.36362 108.998 1.30449 110.579L7.88115 110.513C11.0997 110.513 14.3255 110.253 17.4338 110.025L20.3364 109.821C22.5425 109.728 24.7517 109.796 26.9498 110.025C28.6031 110.155 30.3153 110.285 32.02 110.277C32.7549 110.277 33.4897 110.277 34.2245 110.277C36.0686 110.362 37.9159 110.291 39.7504 110.066C41.4572 109.836 43.1748 109.719 44.8941 109.715C46.4728 109.714 48.0501 109.616 49.619 109.422C53.7675 108.933 57.9403 108.743 62.111 108.852C63.4484 108.852 64.7784 108.852 66.1084 108.852C67.5781 108.852 69.0477 108.966 70.4292 109.088C71.8106 109.21 73.295 109.332 74.7499 109.316C77.0426 109.275 79.2103 109.235 87.3742 109.609C89.3389 109.633 91.3028 109.51 93.2527 109.243C94.7812 109.072 96.361 108.901 97.838 108.868C99.4473 108.868 101.035 108.974 102.57 109.104C104.106 109.235 105.568 109.332 107.082 109.332C114.1 109.243 121.205 109.495 127.473 109.707C130.861 109.837 134.307 109.585 137.636 109.357C140.171 109.178 142.78 108.99 145.374 108.966L158.321 108.844L163.854 108.787C165.427 108.849 167 108.729 168.55 108.428C169.439 108.233 169.733 108.217 173.936 108.86H174.068C174.244 108.916 174.428 108.932 174.609 108.905C174.789 108.879 174.963 108.811 175.119 108.705C175.435 108.504 175.805 108.434 176.163 108.51C176.256 108.292 176.304 108.054 176.304 107.813C176.304 107.573 176.256 107.335 176.163 107.117C175.993 106.582 175.923 106.014 175.957 105.447V105.236C176.133 102.792 176.317 100.202 176.692 97.7179C176.883 96.6312 177.153 95.5635 177.5 94.5251C177.831 93.5483 178.089 92.5432 178.272 91.5197C178.558 89.6871 178.727 87.8057 178.896 85.9812C179.076 83.5531 179.38 81.1384 179.807 78.7486C180.024 77.5532 180.183 76.3461 180.285 75.1323C180.381 74.1793 180.483 73.1857 180.638 72.2083C180.812 71.1996 180.879 70.1717 180.836 69.1458C180.344 68.8608 180.278 68.0055 180.234 67.4517C180.221 67.2358 180.196 67.0209 180.16 66.8082C179.447 66.9882 178.704 66.9686 178 66.7513C177.436 66.5774 176.846 66.533 176.266 66.6209C175.288 66.7513 174.737 66.8408 174.429 66.8979C174.333 67.0059 174.205 67.0724 174.068 67.0852C173.942 67.1036 173.814 67.0897 173.694 67.0445C173.4 67.0445 172.827 67.0445 171.702 67.0445L149.658 67.2644C148.57 67.2644 147.453 67.3295 146.366 67.3947C145.432 67.4435 144.499 67.4924 143.573 67.5087C143.416 67.5164 143.261 67.5579 143.118 67.6309C143.025 67.6699 142.929 67.6999 142.831 67.7205L142.214 69.7485C142.173 69.8727 142.096 69.9781 141.995 70.0476C141.893 70.1171 141.774 70.1466 141.655 70.1314C141.539 70.1121 141.432 70.0475 141.354 69.9491C141.275 69.8507 141.231 69.7248 141.229 69.5938C141.229 69.5938 141.545 66.4417 142.207 66.173C142.339 65.7087 142.427 65.3585 142.493 65.0571C142.436 64.9762 142.4 64.8803 142.387 64.7788C142.374 64.6774 142.385 64.5739 142.42 64.4788C143.552 61.3234 144.468 58.078 145.161 54.7702C145.697 52.4815 146.248 50.1113 146.946 47.8471C147.274 46.6493 147.457 45.4086 147.49 44.1574C147.531 43.3391 147.61 42.5236 147.725 41.714C147.835 41.1135 147.993 40.5248 148.195 39.9547C148.472 39.2616 148.636 38.52 148.68 37.7638C148.677 37.7231 148.677 37.6822 148.68 37.6416C148.61 37.5445 148.571 37.424 148.57 37.2995C148.561 37.1581 148.601 37.0182 148.682 36.9079C148.762 36.7977 148.877 36.7251 149.004 36.7049C149.235 36.6663 149.47 36.6663 149.702 36.7049H150.437C152.185 36.7049 152.185 36.7049 153.111 34.8316C154.059 33.0739 154.851 31.2192 155.477 29.2931C155.654 28.7067 155.86 28.0958 156.058 27.4687C156.703 25.7541 157.15 23.9562 157.388 22.1175C157.55 20.1061 157.948 18.1266 158.571 16.2288C159.014 14.5821 159.307 12.8904 159.445 11.179C159.585 9.50217 159.858 7.8423 160.261 6.21878C160.448 5.70121 160.538 5.14704 160.526 4.58981C160.512 4.09453 160.534 3.59883 160.592 3.10745C160.589 3.08587 160.589 3.06386 160.592 3.04229C160.158 3.16365 159.703 3.16365 159.269 3.04229C159.171 3.08997 159.075 3.14438 158.983 3.20519C158.781 3.33874 158.555 3.4221 158.321 3.44953H158.167C157.248 3.51469 156.367 3.57986 155.411 3.588C153.348 3.69477 151.285 3.38851 149.32 2.68392C147.416 2.04695 145.428 1.77157 143.441 1.86944C135.395 2.03234 125.871 2.14636 116.253 1.72283L115.165 1.67396C112.427 1.47851 109.681 1.47851 106.942 1.67396C106.259 1.74726 105.59 1.83685 104.929 1.93459C103.566 2.15949 102.192 2.28736 100.814 2.3174H100.535C96.8911 2.28664 93.2498 2.53703 89.6374 3.06673C86.0277 3.52285 82.3898 3.64272 78.7621 3.42509C75.1313 3.20256 71.49 3.33065 67.8794 3.8079C66.6081 4.01967 65.3148 4.3699 64.0656 4.70384L63.6027 4.82601C62.2443 5.14583 60.8614 5.32039 59.473 5.34728C58.6941 5.34728 57.8858 5.42873 57.0701 5.53462C55.7621 5.70566 54.4541 5.99073 53.1903 6.25951C51.3025 6.71287 49.3865 7.00693 47.4587 7.13915C46.0257 7.19617 44.5561 7.32648 43.1306 7.46494C41.9034 7.57897 40.6689 7.693 39.4564 7.75816C38.244 7.82331 37.8913 8.312 37.1197 9.72921L36.9433 10.0631C36.7598 10.3821 36.5954 10.714 36.451 11.0568C36.6525 11.1458 36.8173 11.314 36.914 11.5292C37.1124 11.969 37.0462 12.6043 36.6862 13.6713C35.6574 16.7175 34.8344 19.6415 33.8571 23.1438L33.6807 23.7791C33.0843 25.6174 32.7064 27.534 32.5565 29.4804C32.2935 31.9895 31.7479 34.4521 30.9325 36.8108C30.6386 37.78 29.4629 37.8778 29.2498 38.8226C29.1763 39.0914 29.3233 39.523 29.2498 39.7837C29.1763 40.0443 30.5504 39.7104 29.6172 39.9303" fill="black"/>
<path d="M241.474 205.132C241.371 205.131 241.271 205.095 241.187 205.03C241.103 204.965 241.039 204.872 241.003 204.766C240.769 204.19 240.385 203.706 239.901 203.373C239.294 202.925 238.809 202.303 238.498 201.573C238.35 201.167 238.224 200.75 238.123 200.327C238.01 199.823 237.837 199.338 237.608 198.885C237.482 198.674 237.337 198.478 237.175 198.299C236.892 197.992 236.645 197.647 236.44 197.273C236.102 196.597 235.808 195.872 235.522 195.171C235.18 194.261 234.78 193.379 234.324 192.532L233.662 191.359C233.207 190.545 232.751 189.787 232.296 188.957C229.944 184.648 228.563 179.9 227.101 174.882C226.513 172.871 225.91 170.81 225.241 168.766C224.433 166.515 223.47 164.337 222.361 162.25C221.567 160.662 220.752 158.992 220.076 157.363C219.304 155.457 212.632 140.951 200.235 114.261L199.016 111.63C198.222 109.911 197.392 108.225 196.554 106.547C195.312 104.022 194.019 101.416 192.88 98.7447L192.145 97.0098C190.28 92.3388 188.168 87.7942 185.818 83.3998C184.982 81.8523 184.245 80.2411 183.614 78.5781C183.114 77.3156 182.592 76.0125 181.975 74.7907C181.699 74.1482 181.348 73.5485 180.932 73.007C180.512 72.4598 180.131 71.877 179.793 71.264C179.732 71.1392 179.717 70.9937 179.749 70.8567C179.782 70.7198 179.859 70.6014 179.967 70.5252C180.075 70.4491 180.204 70.4208 180.33 70.446C180.456 70.4712 180.568 70.5481 180.645 70.6613C180.949 71.2374 181.298 71.7825 181.689 72.2903C182.153 72.8889 182.545 73.5514 182.857 74.2613C183.489 75.5319 184.025 76.8595 184.532 78.1383C185.139 79.7556 185.849 81.3234 186.656 82.8297C189.029 87.2622 191.161 91.8477 193.042 96.5618L193.776 98.2886C194.886 100.919 196.172 103.518 197.406 106.026C198.244 107.712 199.082 109.406 199.883 111.133L201.103 113.772C205.725 123.725 219.789 154.015 220.943 156.939C221.597 158.568 222.412 160.197 223.191 161.753C224.324 163.895 225.307 166.131 226.131 168.44C226.807 170.5 227.409 172.577 227.997 174.597C229.467 179.549 230.804 184.233 233.097 188.444C233.545 189.258 234 190.072 234.449 190.822L235.117 191.978C235.599 192.873 236.024 193.804 236.389 194.764C236.675 195.473 236.947 196.14 237.27 196.784C237.432 197.081 237.627 197.355 237.851 197.598C238.072 197.844 238.267 198.117 238.431 198.413C238.702 198.944 238.905 199.514 239.034 200.107C239.122 200.441 239.218 200.799 239.372 201.231C239.624 201.78 240.005 202.244 240.474 202.575C241.106 203.035 241.599 203.692 241.892 204.464C241.916 204.533 241.927 204.607 241.924 204.68C241.921 204.754 241.906 204.826 241.878 204.893C241.85 204.96 241.81 205.019 241.761 205.069C241.711 205.118 241.654 205.157 241.591 205.181C241.535 205.19 241.478 205.19 241.422 205.181" fill="black"/>
<path d="M242.106 204.538H242.017C241.887 204.514 241.77 204.433 241.693 204.314C241.616 204.195 241.585 204.047 241.606 203.902C241.661 202.893 241.387 201.896 240.834 201.092C240.605 200.676 240.401 200.244 240.224 199.797C239.394 197.29 238.767 194.706 238.351 192.076C238.093 190.748 237.836 189.364 237.535 188.085C237.366 187.344 237.175 186.611 236.984 185.87C236.705 184.794 236.418 183.67 236.183 182.546C235.963 181.312 235.843 180.058 235.823 178.8C235.8 177.707 235.704 176.619 235.536 175.542C235.295 174.433 234.937 173.358 234.471 172.341C234.142 171.592 233.852 170.822 233.604 170.036C233.214 168.708 232.906 167.307 232.604 165.964C232.354 164.831 232.097 163.659 231.796 162.559C230.723 158.658 223.301 143.142 216.762 129.458C211.853 119.212 207.62 110.359 206.871 108.094C205.636 104.364 204.343 100.625 202.925 96.6914C202.516 95.6387 202.047 94.6158 201.521 93.629C201.22 93.0181 200.919 92.4154 200.647 91.8208L200.022 90.4443C199.493 89.2796 198.971 88.1312 198.457 86.942C197.487 84.7103 196.326 82.4624 195.202 80.2877C194.643 79.2044 194.085 78.1211 193.549 77.0297C192.196 74.3148 190.842 71.5998 189.485 68.8849C187.574 65.0812 185.671 61.2857 183.783 57.4413C182.558 54.8312 181.507 52.1254 180.638 49.3453L180.131 47.8467C179.895 47.1544 179.638 46.5272 179.396 45.9001C178.891 44.737 178.488 43.5233 178.191 42.2756C177.734 40.4774 177.101 38.7403 176.302 37.0955C175.487 35.3199 174.759 33.4221 174.054 31.5814C173.209 29.3823 172.342 27.1017 171.291 24.9841C170.493 23.2924 169.777 21.5551 169.145 19.7795C168.631 18.3867 168.087 16.9532 167.47 15.5849C167.101 14.727 166.773 13.8489 166.485 12.9541C166.213 12.1396 165.934 11.3251 165.596 10.5595C165.115 9.48339 164.499 8.48803 163.766 7.6029L163.178 6.78841C162.942 6.43428 162.726 6.06435 162.532 5.68071C162.164 5.01283 161.062 2.95218 160.592 3.14766C160.466 3.19408 160.329 3.18326 160.21 3.11758C160.092 3.0519 160.002 2.93675 159.96 2.79743C159.938 2.72903 159.928 2.65645 159.932 2.58397C159.936 2.51149 159.953 2.44057 159.981 2.37534C160.01 2.31011 160.05 2.25189 160.1 2.20409C160.149 2.1563 160.206 2.11988 160.268 2.09698C161.503 1.62457 162.546 3.55491 163.391 5.10243C163.565 5.43876 163.754 5.76499 163.957 6.07981L164.538 6.85357C165.324 7.81018 165.985 8.88505 166.5 10.0464C166.86 10.8608 167.146 11.6753 167.426 12.4898C167.699 13.3478 168.015 14.188 168.373 15.0066C169.005 16.4156 169.549 17.8736 170.078 19.2826C170.694 21.0235 171.396 22.7256 172.18 24.3813C173.245 26.5397 174.127 28.8447 174.98 31.0764C175.678 32.8927 176.398 34.7742 177.184 36.5172C178.016 38.2411 178.676 40.0599 179.153 41.9416C179.441 43.1234 179.824 44.2739 180.3 45.3788C180.557 46.0141 180.821 46.6657 181.034 47.3743L181.542 48.8811C182.393 51.611 183.425 54.2679 184.628 56.8305C186.516 60.6748 188.419 64.4703 190.323 68.2333C191.682 70.9374 193.034 73.6415 194.394 76.3781C194.923 77.4451 195.481 78.5202 196.04 79.6361C197.164 81.827 198.34 84.0995 199.324 86.3637C199.839 87.5447 200.36 88.685 200.882 89.8416L201.514 91.2181C201.771 91.8045 202.065 92.3909 202.366 92.9855C202.919 94.0157 203.41 95.085 203.836 96.1864C205.262 100.161 206.555 103.908 207.797 107.646C208.532 109.845 212.94 119.049 217.629 128.872C224.198 142.604 231.649 158.193 232.744 162.16C233.053 163.292 233.317 164.481 233.567 165.63C233.861 166.965 234.162 168.342 234.544 169.621C234.782 170.367 235.057 171.099 235.367 171.812C235.87 172.908 236.252 174.068 236.506 175.265C236.685 176.39 236.786 177.528 236.807 178.67C236.825 179.862 236.94 181.051 237.153 182.221C237.373 183.32 237.66 184.42 237.939 185.479C238.13 186.22 238.321 186.961 238.498 187.71C238.806 189.022 239.063 190.414 239.313 191.783C239.72 194.347 240.332 196.865 241.143 199.309C241.301 199.707 241.483 200.093 241.687 200.465C242.365 201.486 242.684 202.746 242.583 204.008C242.566 204.139 242.506 204.259 242.416 204.345C242.326 204.432 242.21 204.48 242.091 204.481" fill="black"/>
<path d="M240.944 204.067C237.322 204.067 232.795 203.692 228.651 201.371C228.177 201.083 227.737 200.73 227.343 200.32C226.942 199.851 226.434 199.51 225.873 199.334C224.955 199.114 224.022 198.797 223.118 198.52C221.89 198.066 220.632 197.72 219.355 197.485C216.585 197.046 214.689 195.123 212.86 193.266C211.155 191.54 209.553 189.911 207.275 189.316C197.722 186.832 187.898 184.494 178.176 182.368C162.693 175.356 134.315 165.468 114.687 159.123C104.29 155.759 87.6681 149.08 75.5215 144.201C67.4825 140.943 61.1336 138.419 59.3554 137.922C57.1509 137.311 49.6484 133.556 42.3883 129.915C36.0395 126.739 28.8603 123.147 27.8389 123.033C27.7686 123.049 27.6961 123.049 27.6258 123.033C26.3913 122.764 16.9047 118.765 9.25524 115.556C4.84631 113.699 1.04728 112.102 0.437377 111.891C0.374649 111.869 0.316337 111.834 0.26577 111.788C0.215202 111.742 0.173374 111.685 0.142668 111.62C0.111961 111.556 0.0929766 111.486 0.0868072 111.413C0.0806377 111.341 0.0874023 111.268 0.106709 111.198C0.14581 111.058 0.233146 110.94 0.349942 110.87C0.466738 110.799 0.603665 110.783 0.731301 110.824C1.37794 111.044 5.01532 112.575 9.6153 114.513C16.6916 117.494 26.3472 121.559 27.7434 121.925C28.6031 121.852 31.2484 123.131 42.7851 128.905C50.0084 132.522 57.4816 136.236 59.5832 136.838C61.4276 137.352 67.7985 139.909 75.8668 143.159C87.9914 148.046 104.606 154.7 114.967 158.056C134.616 164.409 163.039 174.346 178.463 181.31C188.111 183.403 197.913 185.74 207.51 188.233C210.038 188.893 211.816 190.676 213.536 192.444C215.255 194.211 217.033 195.995 219.495 196.378C220.822 196.626 222.131 196.983 223.412 197.445C224.293 197.746 225.212 198.047 226.086 198.259C226.818 198.469 227.482 198.901 228.004 199.505C228.336 199.855 228.706 200.156 229.107 200.401C233.324 202.763 238.005 203.008 241.598 202.975C241.691 202.982 241.785 202.982 241.878 202.975C241.959 202.896 242.063 202.852 242.172 202.853C242.444 202.853 242.796 203.114 242.804 203.423C242.804 203.586 242.804 204.107 241.598 204.124H240.915" fill="black"/>
<path d="M241.011 203.684C240.915 203.682 240.822 203.65 240.742 203.593C240.661 203.536 240.597 203.455 240.556 203.359C240.514 203.264 240.498 203.157 240.508 203.052C240.519 202.947 240.555 202.847 240.614 202.763C237.88 200.198 235.154 197.062 232.281 193.804C228.535 189.328 224.524 185.135 220.274 181.253C218.524 179.675 216.858 177.986 215.285 176.195C214.55 175.38 213.749 174.509 212.94 173.67C210.001 170.615 207.143 167.235 204.38 163.977L204.218 163.782C201.279 160.312 199.28 156.451 197.347 152.688C196.863 151.743 195.356 148.429 193.269 143.843C188.61 133.531 179.161 112.746 176.523 109.097C176.177 109.276 175.905 108.926 175.788 108.787C175.704 108.679 175.659 108.539 175.663 108.396C175.594 108.268 175.567 108.117 175.586 107.969C175.605 107.821 175.668 107.685 175.766 107.582C176.111 107.24 176.501 107.582 176.662 107.663C178.551 109.097 186.347 126.063 194.195 143.305C196.194 147.704 197.774 151.181 198.251 152.11C200.243 155.963 202.117 159.611 204.982 162.992L205.144 163.179C207.892 166.437 210.743 169.793 213.661 172.823C214.476 173.678 215.248 174.525 216.019 175.372C217.567 177.129 219.203 178.788 220.921 180.34C225.208 184.252 229.254 188.477 233.03 192.989C235.841 196.332 238.817 199.5 241.944 202.478C242.026 202.557 242.086 202.66 242.119 202.775C242.151 202.89 242.154 203.013 242.128 203.13C242.017 203.537 241.65 203.578 241.349 203.61C241.285 203.601 241.221 203.601 241.158 203.61H241.04" fill="black"/>
<path d="M170.468 67.7118C170.38 67.7137 170.293 67.6889 170.216 67.6401C170.14 67.5913 170.077 67.5204 170.034 67.4349C168.844 65.1787 167.507 62.9063 166.206 60.7072C165.192 58.9886 164.178 57.27 163.223 55.5351C162.693 54.5822 162.164 53.6374 161.628 52.7007C160.032 49.9742 158.56 47.1606 157.219 44.2707C156.456 42.7075 155.563 41.2268 154.551 39.848C153.296 38.1883 152.25 36.3469 151.443 34.3746C151.395 34.2363 151.398 34.0825 151.452 33.9467C151.505 33.8109 151.605 33.7042 151.73 33.6496C151.855 33.5985 151.993 33.6029 152.115 33.6622C152.237 33.7214 152.333 33.8308 152.384 33.9673C153.143 35.8411 154.132 37.5897 155.323 39.1638C156.373 40.601 157.303 42.1413 158.101 43.7657C159.437 46.6184 160.904 49.394 162.495 52.0817C163.031 53.0265 163.568 53.9713 164.097 54.9324C165.052 56.651 166.059 58.3696 167.036 60.0718C168.337 62.2873 169.689 64.5679 170.887 66.8566C170.92 66.9197 170.941 66.9893 170.95 67.0616C170.958 67.1338 170.954 67.2072 170.937 67.2776C170.92 67.348 170.89 67.4139 170.85 67.4716C170.81 67.5294 170.76 67.5778 170.703 67.6141C170.627 67.662 170.541 67.6873 170.453 67.6874" fill="black"/>
<path d="M164.369 67.4438C164.281 67.444 164.195 67.4185 164.119 67.3699C164.042 67.3213 163.979 67.2513 163.935 67.1669L163.34 66.0348C163.12 65.6113 163.12 65.6113 162.745 64.8131L162.429 64.1453C161.231 61.5797 159.989 59.0467 158.755 56.5055C157.52 53.9644 156.359 51.6187 155.198 49.1753C153.852 46.2153 152.187 43.4475 150.238 40.9329C150.008 40.6753 149.763 40.4358 149.503 40.2161C148.768 39.532 147.967 38.7664 147.835 37.6831C147.818 37.5373 147.853 37.3898 147.934 37.2729C148.014 37.1561 148.134 37.0795 148.265 37.06C148.397 37.0406 148.53 37.0799 148.635 37.1692C148.741 37.2586 148.81 37.3907 148.827 37.5365C148.908 38.1881 149.562 38.8152 150.157 39.3609C150.439 39.6143 150.706 39.8862 150.958 40.1754C152.962 42.7608 154.677 45.6049 156.065 48.6459C157.226 51.0893 158.424 53.5327 159.615 55.9761C160.805 58.4195 162.106 61.0584 163.289 63.6321L163.597 64.3C163.957 65.0656 163.957 65.0656 164.17 65.4728L164.766 66.6049C164.806 66.6887 164.826 66.7826 164.824 66.8775C164.823 66.9725 164.799 67.0653 164.755 67.1471C164.712 67.2289 164.65 67.2969 164.576 67.3445C164.502 67.3922 164.418 67.418 164.332 67.4194" fill="black"/>
<path d="M107.743 19.8292L102.269 23.8527L96.0744 21.3604L94.715 25.4735H99.6824V30.059H93.2086L92.2019 33.1541L102.798 37.422L97.3677 41.4292L85.2651 36.5505L90.9086 19.2998L87.4182 17.8907L92.8706 13.8916L107.743 19.8292Z" fill="black"/>
<path d="M65.7115 50.4536L62.6988 52.6608L59.3039 51.2925L58.5544 53.5486H61.2879V56.0654H57.7241L57.1729 57.7758L62.9927 60.1134L60.0093 62.3125L53.3666 59.6328L56.4675 50.1604L54.5496 49.3866L57.5404 47.1875L65.7115 50.4536Z" fill="black"/>
<path d="M86.3086 17.1733L80.7607 34.0576L83.9866 38.3744H73.6624L69.3563 41.5835L63.4778 33.3409L69.9074 13.728L74.5956 17.2059L69.6209 32.3879L73.633 37.9509L80.4741 17.1733H86.3086Z" fill="black"/>
<path d="M144.749 22.0686L139.414 38.2358H133.727L129.443 41.4937L123.564 33.2512L128.869 17.0596H134.557L138.841 13.8506L144.749 22.0686ZM138.628 23.0459L134.586 17.4831L129.737 32.2739L133.771 37.8367L138.628 23.0459Z" fill="black"/>
<path d="M122.499 35.955L117.046 39.9541L105.737 35.3686L110.903 19.7062L107.677 15.3569H118.148L112.674 32.0048L122.499 35.955Z" fill="black"/>
<path d="M63.5952 22.0686L58.6426 37.1444L51.0666 41.4937L46.5915 38.2358H40.7571L46.2829 21.4089L43.1012 17.0596H53.4327L57.7387 13.8506L63.5952 22.0686ZM57.4742 23.0459L53.4327 17.4587L46.7605 37.7552L54.0058 33.6829L57.4742 23.0459Z" fill="black"/>
<path d="M53.7854 51.6837L51.0666 59.9672L46.9075 62.3374L44.4532 60.5781H41.2421L44.2916 51.3172L42.5353 48.9307H48.2081L50.5669 47.1714L53.7854 51.6837ZM50.4273 52.2213L48.2228 49.1506L44.5487 60.3011L48.5315 58.045L50.4273 52.2213Z" fill="black"/>
<path d="M136.321 47.6106L133.183 52.75L126.371 50.5997L133.183 65.0975L126.445 70.8804L116.4 67.3781L119.53 62.2143L126.827 64.8125L120.059 50.3636L126.775 44.5889L136.321 47.6106Z" fill="black"/>
<path d="M119.008 48.825L116.04 53.7281L109.485 50.3643L105.877 61.4655L114.768 66.9795L109.419 70.9297L99.043 64.4628L103.555 50.6575L110.661 44.5327L119.008 48.825Z" fill="black"/>
<path d="M80.3933 99.5337L88.4249 75.1245L93.1351 78.6022L87.6607 95.1927L90.8645 99.5337H80.3933Z" fill="black"/>
<path d="M113.152 81.7384L107.846 97.9387H102.181L97.8747 101.14L91.9961 92.897L97.3015 76.7293H102.996L107.273 73.5283L113.152 81.7384ZM107.031 82.724L102.996 77.161L98.1392 91.944L102.181 97.5151L107.031 82.724Z" fill="black"/>
<path d="M171.276 95.6252L165.824 99.6323L154.515 95.0469L159.673 79.3849L156.447 75.0356H166.919L161.444 91.6832L171.276 95.6252Z" fill="black"/>
<path d="M63.5807 81.7381L57.2465 101.139L52.5583 97.6939L55.1449 89.8259H49.2663L46.5915 97.9708H40.7717L47.7305 76.7942H53.4181L57.7021 73.5933L63.5807 81.7381ZM57.4596 82.7236L53.4181 77.1607L50.7874 85.1915H56.666L57.4596 82.7236Z" fill="black"/>
<path d="M155.316 81.7381L148.982 101.139L144.293 97.6939L146.873 89.8259H140.994L138.319 97.9708H132.507L139.466 76.7942H145.153L149.437 73.5933L155.316 81.7381ZM149.195 82.7236L145.153 77.1607L142.544 85.1915H148.423L149.195 82.7236Z" fill="black"/>
<path d="M83.0754 78.4233L80.1068 83.3347L73.5595 79.9627L69.9442 91.0725L78.8429 96.5785L73.486 100.529L63.1104 94.0617L67.6222 80.2559L74.7279 74.1309L83.0754 78.4233Z" fill="black"/>
<path d="M42.506 81.6732L36.0763 101.205L31.4396 97.7593L36.3849 82.6506L32.3213 77.0877L26.9424 93.5484L30.1463 97.8652H19.675L25.223 80.9809L21.9971 76.6642H32.3213L36.6274 73.4551L42.506 81.6732Z" fill="black"/>
<path d="M134.271 81.6732L127.841 101.205L123.197 97.7593L128.149 82.6506L124.086 77.0877L118.7 93.5484L121.911 97.8652H111.44L116.98 80.9809L113.754 76.6642H124.086L128.385 73.4551L134.271 81.6732Z" fill="black"/>
<path d="M99.4766 52.3444L93.1865 71.4766L88.5277 68.0069L93.6935 52.3444H87.8811L81.5469 71.6069L76.8808 68.1617L81.8555 53.053L77.814 47.5145L72.4351 63.9508L75.661 68.2675H65.1677L70.7156 51.4158L67.5118 47.0665H77.792L82.0907 43.8574L87.9545 52.0511L93.62 43.9959L99.4766 52.3444Z" fill="black"/>
<path d="M33.6366 42.6428C33.7835 41.9423 33.9305 41.2336 34.0701 40.533C34.121 40.3276 34.0972 40.1083 34.004 39.922C33.9287 39.7928 33.822 39.6899 33.6962 39.6251C33.5704 39.5603 33.4306 39.5364 33.293 39.556C33.1555 39.5756 33.0257 39.6379 32.9187 39.7359C32.8118 39.8338 32.732 39.9633 32.6887 40.1094C32.5417 40.8181 32.4021 41.5187 32.2552 42.2193C32.2301 42.3227 32.2237 42.4307 32.2363 42.5369C32.2489 42.6432 32.2803 42.7456 32.3286 42.8383C32.425 43.0129 32.5772 43.1409 32.7548 43.1968C32.9378 43.2476 33.1315 43.2184 33.2956 43.1153C33.4598 43.0122 33.5818 42.843 33.6366 42.6428Z" fill="black"/>
</svg>
