<svg width="58" height="58" viewBox="0 0 58 58" fill="none" xmlns="http://www.w3.org/2000/svg">
<path d="M29.2073 57.3374C45.1091 57.3374 58 44.5032 58 28.6714C58 12.8396 45.1091 0.00537109 29.2073 0.00537109C13.3056 0.00537109 0.414673 12.8396 0.414673 28.6714C0.414673 44.5032 13.3056 57.3374 29.2073 57.3374Z" fill="white"/>
<path d="M20.7188 13.4639L14.6532 19.503V41.2431H21.9303V47.2822L27.9959 41.2431H32.8501L43.7657 30.371V13.4639H20.7188ZM41.3386 29.1776L36.4887 34.0064H31.6344L27.3689 38.2533V34.0064H21.9089V15.8889H41.3173L41.3386 29.1776Z" fill="#010201"/>
<path d="M37.7 20.105H35.2729V27.3501H37.7V20.105Z" fill="#010201"/>
<path d="M31.0288 20.105H28.6017V27.3501H31.0288V20.105Z" fill="#010201"/>
</svg>
